{
    "geometry": {
        "type": "Polygon", 
        "coordinates": [
            [
                [
                    144.88640384200005, 
                    13.640204169000114
                ], 
                [
                    144.89665774800005, 
                    13.617987372000059
                ], 
                [
                    144.91431725400008, 
                    13.60541413000007
                ], 
                [
                    144.934418165, 
                    13.599839585000069
                ], 
                [
                    144.95191491000008, 
                    13.598578192000062
                ], 
                [
                    144.95215905000015, 
                    13.586859442000062
                ], 
                [
                    144.93767337300005, 
                    13.560532945000062
                ], 
                [
                    144.90699303500008, 
                    13.516669012000108
                ], 
                [
                    144.87183678500003, 
                    13.485174872000101
                ], 
                [
                    144.80827884200005, 
                    13.445786851000022
                ], 
                [
                    144.78345787900008, 
                    13.420477606000077
                ], 
                [
                    144.76937910200002, 
                    13.37913646000004
                ], 
                [
                    144.760101759, 
                    13.28563060100008
                ], 
                [
                    144.73560631600003, 
                    13.249172268000024
                ], 
                [
                    144.71802819100003, 
                    13.241848049000112
                ], 
                [
                    144.69752037900008, 
                    13.241034247000101
                ], 
                [
                    144.68067467500015, 
                    13.24677155200007
                ], 
                [
                    144.67042076900015, 
                    13.264837958000086
                ], 
                [
                    144.6567488940001, 
                    13.282049872000101
                ], 
                [
                    144.65357506600003, 
                    13.287014065000065
                ], 
                [
                    144.64747155000015, 
                    13.324896552000084
                ], 
                [
                    144.6442977220001, 
                    13.331610419000043
                ], 
                [
                    144.63949629, 
                    13.337469794000086
                ], 
                [
                    144.63363691500007, 
                    13.342108466000099
                ], 
                [
                    144.626312696, 
                    13.345363674000055
                ], 
                [
                    144.63656660200007, 
                    13.355414130000028
                ], 
                [
                    144.64307701900015, 
                    13.36570872600005
                ], 
                [
                    144.6464949880001, 
                    13.378485419000086
                ], 
                [
                    144.64747155000015, 
                    13.39622630400008
                ], 
                [
                    144.6455184250001, 
                    13.404486395000077
                ], 
                [
                    144.64047285200007, 
                    13.41478099200009
                ], 
                [
                    144.6347762380001, 
                    13.42352936400006
                ], 
                [
                    144.62419681100005, 
                    13.431219794000086
                ], 
                [
                    144.6286727220001, 
                    13.438788153000132
                ], 
                [
                    144.6364852220001, 
                    13.443101304000038
                ], 
                [
                    144.64063561300014, 
                    13.437811591000056
                ], 
                [
                    144.6544702480001, 
                    13.439154364000046
                ], 
                [
                    144.71485436300014, 
                    13.473456122000101
                ], 
                [
                    144.72877037900003, 
                    13.485581773000106
                ], 
                [
                    144.78345787900008, 
                    13.516669012000108
                ], 
                [
                    144.7941186860001, 
                    13.52708567900001
                ], 
                [
                    144.8032332690001, 
                    13.539129950000103
                ], 
                [
                    144.81120853000004, 
                    13.553615627000056
                ], 
                [
                    144.8322046230001, 
                    13.620672919000043
                ], 
                [
                    144.83863366000003, 
                    13.632757880000042
                ], 
                [
                    144.85043379000007, 
                    13.6437442080001
                ], 
                [
                    144.86670983200008, 
                    13.653021552000055
                ], 
                [
                    144.8806258470001, 
                    13.654120184000092
                ], 
                [
                    144.88640384200005, 
                    13.640204169000114
                ]
            ]
        ]
    }, 
    "type": "Feature", 
    "properties": {
        "ADMIN": "Guam", 
        "ISO_A3": "GUM"
    }
}