{
    "geometry": {
        "type": "MultiPolygon", 
        "coordinates": [
            [
                [
                    [
                        72.43897545700011, 
                        -7.340264580999858
                    ], 
                    [
                        72.432871941, 
                        -7.425388278999847
                    ], 
                    [
                        72.4432072270001, 
                        -7.416436455999829
                    ], 
                    [
                        72.46753991000011, 
                        -7.383884372999859
                    ], 
                    [
                        72.4715275400001, 
                        -7.379082940999865
                    ], 
                    [
                        72.47478274800014, 
                        -7.376560153999847
                    ], 
                    [
                        72.47771243600008, 
                        -7.372816664999917
                    ], 
                    [
                        72.48031660200016, 
                        -7.364678643999895
                    ], 
                    [
                        72.48316491000017, 
                        -7.370293877999899
                    ], 
                    [
                        72.48462975400011, 
                        -7.375909112999892
                    ], 
                    [
                        72.48414147200006, 
                        -7.382500908999873
                    ], 
                    [
                        72.48064212300008, 
                        -7.390557549999912
                    ], 
                    [
                        72.47266686300011, 
                        -7.399997653999918
                    ], 
                    [
                        72.44410241000011, 
                        -7.424981377999842
                    ], 
                    [
                        72.432871941, 
                        -7.43222421699987
                    ], 
                    [
                        72.42693118600019, 
                        -7.403985283999901
                    ], 
                    [
                        72.432871941, 
                        -7.346774997999845
                    ], 
                    [
                        72.42603600400011, 
                        -7.322930596999868
                    ], 
                    [
                        72.41944420700023, 
                        -7.317315362999864
                    ], 
                    [
                        72.3966577480002, 
                        -7.304864190999851
                    ], 
                    [
                        72.38819420700005, 
                        -7.302504164999888
                    ], 
                    [
                        72.37924238400015, 
                        -7.296807549999897
                    ], 
                    [
                        72.35767662900011, 
                        -7.268324476999808
                    ], 
                    [
                        72.37094160200016, 
                        -7.270196221999868
                    ], 
                    [
                        72.42017662900017, 
                        -7.30388762799987
                    ], 
                    [
                        72.432871941, 
                        -7.316094658999845
                    ], 
                    [
                        72.43897545700011, 
                        -7.340264580999858
                    ]
                ]
            ], 
            [
                [
                    [
                        72.47535241000011, 
                        -7.352797132999854
                    ], 
                    [
                        72.47901451900006, 
                        -7.361911716999842
                    ], 
                    [
                        72.4749455090001, 
                        -7.356540622999887
                    ], 
                    [
                        72.470469597, 
                        -7.348890882999854
                    ], 
                    [
                        72.46802819100017, 
                        -7.340590101999879
                    ], 
                    [
                        72.47071373800006, 
                        -7.333184502999885
                    ], 
                    [
                        72.4865014980002, 
                        -7.302422783999901
                    ], 
                    [
                        72.47722415500007, 
                        -7.278415622999859
                    ], 
                    [
                        72.45679772200018, 
                        -7.255140882999854
                    ], 
                    [
                        72.43970787900011, 
                        -7.226739190999822
                    ], 
                    [
                        72.45045006600006, 
                        -7.234144789999903
                    ], 
                    [
                        72.48422285200016, 
                        -7.278252862999892
                    ], 
                    [
                        72.49463951900012, 
                        -7.296156507999854
                    ], 
                    [
                        72.4895939460001, 
                        -7.309828382999896
                    ], 
                    [
                        72.47934004000015, 
                        -7.323174737999906
                    ], 
                    [
                        72.47380618600008, 
                        -7.340020440999908
                    ], 
                    [
                        72.47429446700002, 
                        -7.346937757999811
                    ], 
                    [
                        72.47535241000011, 
                        -7.352797132999854
                    ]
                ]
            ], 
            [
                [
                    [
                        71.36207116000011, 
                        -6.652927341999913
                    ], 
                    [
                        71.355235222, 
                        -6.656345309999921
                    ], 
                    [
                        71.35173587300014, 
                        -6.655694268999881
                    ], 
                    [
                        71.35035241000011, 
                        -6.653497002999885
                    ], 
                    [
                        71.35035241000011, 
                        -6.652520440999822
                    ], 
                    [
                        71.36207116000011, 
                        -6.652927341999913
                    ]
                ]
            ], 
            [
                [
                    [
                        71.26482181100002, 
                        -6.385918877999899
                    ], 
                    [
                        71.26140384200002, 
                        -6.388604424999883
                    ], 
                    [
                        71.260996941, 
                        -6.378024997999845
                    ], 
                    [
                        71.26238040500019, 
                        -6.373955987999878
                    ], 
                    [
                        71.26734459700006, 
                        -6.370049737999878
                    ], 
                    [
                        71.268809441, 
                        -6.378106377999828
                    ], 
                    [
                        71.26758873800011, 
                        -6.382745049999841
                    ], 
                    [
                        71.26482181100002, 
                        -6.385918877999899
                    ]
                ]
            ], 
            [
                [
                    [
                        71.35108483200005, 
                        -6.200290622999873
                    ], 
                    [
                        71.34473717500006, 
                        -6.204847914999903
                    ], 
                    [
                        71.33838951900012, 
                        -6.195896091999884
                    ], 
                    [
                        71.34229576900012, 
                        -6.188083591999884
                    ], 
                    [
                        71.3470158210001, 
                        -6.182224216999856
                    ], 
                    [
                        71.35328209700018, 
                        -6.178399346999839
                    ], 
                    [
                        71.36052493600019, 
                        -6.177341403999876
                    ], 
                    [
                        71.35670006600017, 
                        -6.188734632999839
                    ], 
                    [
                        71.35108483200005, 
                        -6.200290622999873
                    ]
                ]
            ], 
            [
                [
                    [
                        71.77418053500017, 
                        -5.438083591999856
                    ], 
                    [
                        71.77320397200018, 
                        -5.440199476999865
                    ], 
                    [
                        71.76465905000006, 
                        -5.433851820999848
                    ], 
                    [
                        71.76238040500019, 
                        -5.431735934999921
                    ], 
                    [
                        71.77173912900011, 
                        -5.43336353999986
                    ], 
                    [
                        71.77458743600008, 
                        -5.435723565999908
                    ], 
                    [
                        71.77418053500017, 
                        -5.438083591999856
                    ]
                ]
            ], 
            [
                [
                    [
                        72.22291100400011, 
                        -5.32773202899989
                    ], 
                    [
                        72.22144616000017, 
                        -5.327813408999873
                    ], 
                    [
                        72.23096764400006, 
                        -5.319268487999864
                    ], 
                    [
                        72.22828209700018, 
                        -5.32480234199987
                    ], 
                    [
                        72.22535241000011, 
                        -5.327243747999901
                    ], 
                    [
                        72.22291100400011, 
                        -5.32773202899989
                    ]
                ]
            ], 
            [
                [
                    [
                        71.73894290500013, 
                        -5.284926039999903
                    ], 
                    [
                        71.73707116000011, 
                        -5.285251559999921
                    ], 
                    [
                        71.74708092500012, 
                        -5.269952080999872
                    ], 
                    [
                        71.7454533210001, 
                        -5.278741143999838
                    ], 
                    [
                        71.74236087300014, 
                        -5.283135674999826
                    ], 
                    [
                        71.73894290500013, 
                        -5.284926039999903
                    ]
                ]
            ], 
            [
                [
                    [
                        71.76644941500015, 
                        -5.239190362999892
                    ], 
                    [
                        71.7644962900001, 
                        -5.239678643999881
                    ], 
                    [
                        71.76270592500012, 
                        -5.237969658999873
                    ], 
                    [
                        71.76026451900006, 
                        -5.236586195999806
                    ], 
                    [
                        71.76856530000006, 
                        -5.23414478999986
                    ], 
                    [
                        71.76644941500015, 
                        -5.239190362999892
                    ]
                ]
            ], 
            [
                [
                    [
                        71.9661564460001, 
                        -5.231703382999825
                    ], 
                    [
                        71.9661564460001, 
                        -5.2347958309999
                    ], 
                    [
                        71.96461022200018, 
                        -5.232354424999869
                    ], 
                    [
                        71.9627384770001, 
                        -5.231215101999837
                    ], 
                    [
                        71.96168053500017, 
                        -5.23007577899989
                    ], 
                    [
                        71.9627384770001, 
                        -5.226983330999914
                    ], 
                    [
                        71.96648196700008, 
                        -5.227471612999892
                    ], 
                    [
                        71.96705162900011, 
                        -5.229180596999896
                    ], 
                    [
                        71.9661564460001, 
                        -5.231703382999825
                    ]
                ]
            ]
        ]
    }, 
    "type": "Feature", 
    "properties": {
        "ADMIN": "British Indian Ocean Territory", 
        "ISO_A3": "IOT"
    }
}