{
    "geometry": {
        "type": "Polygon", 
        "coordinates": [
            [
                [
                    35.80363326000017, 
                    33.24846262600009
                ], 
                [
                    35.80766402200007, 
                    33.201721294
                ], 
                [
                    35.83019494600009, 
                    33.18999074300011
                ], 
                [
                    35.83339888500015, 
                    33.161129456000154
                ], 
                [
                    35.82244348100008, 
                    33.141569926000145
                ], 
                [
                    35.81148807800011, 
                    33.12676462900011
                ], 
                [
                    35.81148807800011, 
                    33.11190765400009
                ], 
                [
                    35.84890181500006, 
                    33.098678487000186
                ], 
                [
                    35.845801229000216, 
                    33.08542348200008
                ], 
                [
                    35.85903039500013, 
                    32.99020965600012
                ], 
                [
                    35.864611450000126, 
                    32.97772979700012
                ], 
                [
                    35.8880725500002, 
                    32.94494110100011
                ], 
                [
                    35.874016561000104, 
                    32.92233266200016
                ], 
                [
                    35.866885213000074, 
                    32.92078236900015
                ], 
                [
                    35.84972863800019, 
                    32.89582265300008
                ], 
                [
                    35.8380497640002, 
                    32.86603118900017
                ], 
                [
                    35.841873820000075, 
                    32.853577169000104
                ], 
                [
                    35.83422570800005, 
                    32.82794565800013
                ], 
                [
                    35.78420292100006, 
                    32.77794871000005
                ], 
                [
                    35.75759034900014, 
                    32.744346858000185
                ], 
                [
                    35.75743453000021, 
                    32.74428151400009
                ], 
                [
                    35.740174601, 
                    32.74053497300018
                ], 
                [
                    35.68519087700005, 
                    32.7112344370001
                ], 
                [
                    35.65201460800009, 
                    32.68617136600001
                ], 
                [
                    35.63599491300013, 
                    32.6791433720001
                ], 
                [
                    35.61233385000011, 
                    32.681535197000116
                ], 
                [
                    35.61222375500003, 
                    32.681546326000145
                ], 
                [
                    35.593826945000075, 
                    32.67035837800002
                ], 
                [
                    35.57873742700016, 
                    32.6534343470001
                ], 
                [
                    35.56984908000007, 
                    32.64676808700001
                ], 
                [
                    35.562717733000085, 
                    32.644210104000095
                ], 
                [
                    35.56054732300012, 
                    32.64090281200011
                ], 
                [
                    35.56003055800008, 
                    32.63268626000017
                ], 
                [
                    35.56406132000009, 
                    32.62547739700001
                ], 
                [
                    35.572536255000074, 
                    32.62123993000016
                ], 
                [
                    35.572536255000074, 
                    32.615012920000154
                ], 
                [
                    35.56561161300007, 
                    32.615012920000154
                ], 
                [
                    35.56561161300007, 
                    32.60754567500014
                ], 
                [
                    35.57129602100022, 
                    32.59855397500009
                ], 
                [
                    35.57439660600008, 
                    32.572767436
                ], 
                [
                    35.579977661000186, 
                    32.56039093000014
                ], 
                [
                    35.57584354600007, 
                    32.55496490500015
                ], 
                [
                    35.57439660600008, 
                    32.55439646400011
                ], 
                [
                    35.57387984200014, 
                    32.55674774200004
                ], 
                [
                    35.572536255000074, 
                    32.56039093000014
                ], 
                [
                    35.57015913900014, 
                    32.55682525700014
                ], 
                [
                    35.56561161300007, 
                    32.54610239700004
                ], 
                [
                    35.5594104410001, 
                    32.55294952400011
                ], 
                [
                    35.56282108600013, 
                    32.532020569000125
                ], 
                [
                    35.56561161300007, 
                    32.525586853000064
                ], 
                [
                    35.5519690350001, 
                    32.525586853000064
                ], 
                [
                    35.5519690350001, 
                    32.518817241000036
                ], 
                [
                    35.557240031000134, 
                    32.519334005000175
                ], 
                [
                    35.561374145000144, 
                    32.519178976000134
                ], 
                [
                    35.568505493000174, 
                    32.51026479100001
                ], 
                [
                    35.57057255000021, 
                    32.50602732400016
                ], 
                [
                    35.579977661000186, 
                    32.49773325600002
                ], 
                [
                    35.579977661000186, 
                    32.4914804080001
                ], 
                [
                    35.57098596200015, 
                    32.48920664500018
                ], 
                [
                    35.564991495000214, 
                    32.483909811000146
                ], 
                [
                    35.5612707920001, 
                    32.47708852200019
                ], 
                [
                    35.5594104410001, 
                    32.47039642300008
                ], 
                [
                    35.56313114400021, 
                    32.468174337000065
                ], 
                [
                    35.5654049070001, 
                    32.46631398500007
                ], 
                [
                    35.56809208200016, 
                    32.464970398
                ], 
                [
                    35.572536255000074, 
                    32.464195252000096
                ], 
                [
                    35.572536255000074, 
                    32.45672800700008
                ], 
                [
                    35.56623173000017, 
                    32.45311065700018
                ], 
                [
                    35.5594104410001, 
                    32.450526835000076
                ], 
                [
                    35.56561161300007, 
                    32.44370554600012
                ], 
                [
                    35.5519690350001, 
                    32.43621246400009
                ], 
                [
                    35.554139445000175, 
                    32.43445546500011
                ], 
                [
                    35.55620650200015, 
                    32.43479136200001
                ], 
                [
                    35.55786014900016, 
                    32.43411956800013
                ], 
                [
                    35.5594104410001, 
                    32.42944285100005
                ], 
                [
                    35.5519690350001, 
                    32.42944285100005
                ], 
                [
                    35.5519690350001, 
                    32.42324167900007
                ], 
                [
                    35.558170207000074, 
                    32.41799652200014
                ], 
                [
                    35.55910038300013, 
                    32.413965759000135
                ], 
                [
                    35.554862915000086, 
                    32.411175232000076
                ], 
                [
                    35.54514774600014, 
                    32.40957326300007
                ], 
                [
                    35.54959191900011, 
                    32.39854034500014
                ], 
                [
                    35.5519690350001, 
                    32.39528473000017
                ], 
                [
                    35.55682662000018, 
                    32.39091807100009
                ], 
                [
                    35.56096073400013, 
                    32.38471689900011
                ], 
                [
                    35.48013879400017, 
                    32.40241607700001
                ], 
                [
                    35.45667769400009, 
                    32.40760955900011
                ], 
                [
                    35.432803182000185, 
                    32.40825551400009
                ], 
                [
                    35.406861613000075, 
                    32.414792582000175
                ], 
                [
                    35.40138391100007, 
                    32.44001068100012
                ], 
                [
                    35.40179732200008, 
                    32.47096486400012
                ], 
                [
                    35.392908976000086, 
                    32.49447764100002
                ], 
                [
                    35.36314335100005, 
                    32.51010976200017
                ], 
                [
                    35.333377726000066, 
                    32.51308115700009
                ], 
                [
                    35.27043583200006, 
                    32.510471497000154
                ], 
                [
                    35.25224572700003, 
                    32.51594919800006
                ], 
                [
                    35.223720337000174, 
                    32.535896302000154
                ], 
                [
                    35.21035935400013, 
                    32.54186756300014
                ], 
                [
                    35.20863081900009, 
                    32.54264007600001
                ], 
                [
                    35.19075077300013, 
                    32.54170990000016
                ], 
                [
                    35.176798137000134, 
                    32.532692363000095
                ], 
                [
                    35.15168339100009, 
                    32.50791351300008
                ], 
                [
                    35.1206775310001, 
                    32.49132537900006
                ], 
                [
                    35.090705200000144, 
                    32.479233094000094
                ], 
                [
                    35.06435021900009, 
                    32.46313588500003
                ], 
                [
                    35.044713175000226, 
                    32.43411956800013
                ], 
                [
                    35.03273030100016, 
                    32.38220026100005
                ], 
                [
                    35.02879683500012, 
                    32.36515736900019
                ], 
                [
                    35.02156213400005, 
                    32.3445901490001
                ], 
                [
                    35.017841431000164, 
                    32.342213033000135
                ], 
                [
                    35.0045089110001, 
                    32.33805308100004
                ], 
                [
                    35.00068485500017, 
                    32.33572764100008
                ], 
                [
                    34.99655074100005, 
                    32.32304107700004
                ], 
                [
                    34.993036743000204, 
                    32.29157013000018
                ], 
                [
                    34.98993615800018, 
                    32.27847015400012
                ], 
                [
                    35.00244185400007, 
                    32.275137024000045
                ], 
                [
                    35.00936649600007, 
                    32.26764394200008
                ], 
                [
                    35.011123494000145, 
                    32.257101949000045
                ], 
                [
                    35.007609497000175, 
                    32.244389547000154
                ], 
                [
                    35.000271444000106, 
                    32.232013041000116
                ], 
                [
                    34.96141076700022, 
                    32.201575623000124
                ], 
                [
                    34.9480782470001, 
                    32.18687367800014
                ], 
                [
                    34.946114542000174, 
                    32.17726186100013
                ], 
                [
                    34.9623409430001, 
                    32.14635935500003
                ], 
                [
                    34.96730188, 
                    32.12946116100015
                ], 
                [
                    34.979910929000226, 
                    32.03520334900004
                ], 
                [
                    34.9804276940001, 
                    32.01654815700006
                ], 
                [
                    34.97867069500009, 
                    31.994378967000145
                ], 
                [
                    34.97867069500009, 
                    31.993707174000164
                ], 
                [
                    34.978980753000116, 
                    31.99308705700018
                ], 
                [
                    34.979600871000144, 
                    31.992570292000053
                ], 
                [
                    34.98032434100017, 
                    31.992156881000042
                ], 
                [
                    34.98115116300019, 
                    31.98884958900014
                ], 
                [
                    34.98146122300008, 
                    31.985232239000155
                ], 
                [
                    34.98115116300019, 
                    31.98161488900017
                ], 
                [
                    34.98032434100017, 
                    31.978204244000054
                ], 
                [
                    34.97608687300013, 
                    31.9482319130001
                ], 
                [
                    34.99582727000009, 
                    31.909164531
                ], 
                [
                    35.007712850000104, 
                    31.87567820200009
                ], 
                [
                    34.98032434100017, 
                    31.862604065000042
                ], 
                [
                    34.953245890000204, 
                    31.85443918900002
                ], 
                [
                    34.947326194000226, 
                    31.84092514600009
                ], 
                [
                    34.94539107300008, 
                    31.836507467000146
                ], 
                [
                    34.95479618300013, 
                    31.8197643030001
                ], 
                [
                    34.98776574700017, 
                    31.81480336600005
                ], 
                [
                    35.00337203, 
                    31.81464833600002
                ], 
                [
                    35.01050337800004, 
                    31.81588857000004
                ], 
                [
                    35.02042525200014, 
                    31.821159567000066
                ], 
                [
                    35.03809859200007, 
                    31.8373859660001
                ], 
                [
                    35.045539999000056, 
                    31.841416728000084
                ], 
                [
                    35.05969934000021, 
                    31.839401347000134
                ], 
                [
                    35.11189253800009, 
                    31.818058981000135
                ], 
                [
                    35.181449015000084, 
                    31.804106344000147
                ], 
                [
                    35.198398885000216, 
                    31.795166321000025
                ], 
                [
                    35.20625370300016, 
                    31.78276397700013
                ], 
                [
                    35.208010701, 
                    31.766124166000125
                ], 
                [
                    35.206563761000126, 
                    31.744626771000085
                ], 
                [
                    35.20284305800013, 
                    31.738942363000135
                ], 
                [
                    35.19829553200006, 
                    31.737702129000112
                ], 
                [
                    35.19312788900018, 
                    31.73987253900019
                ], 
                [
                    35.187443481000145, 
                    31.74447174100014
                ], 
                [
                    35.12574182100016, 
                    31.73310292500007
                ], 
                [
                    35.10672489400011, 
                    31.72493805000012
                ], 
                [
                    35.08884484900014, 
                    31.71258738200008
                ], 
                [
                    35.054014934000094, 
                    31.68220164000003
                ], 
                [
                    34.97360640500014, 
                    31.630370178000035
                ], 
                [
                    34.95531294800017, 
                    31.61187001600011
                ], 
                [
                    34.95317554300007, 
                    31.608319958
                ], 
                [
                    34.937329549000054, 
                    31.582001038
                ], 
                [
                    34.93288537600009, 
                    31.55492258800014
                ], 
                [
                    34.932471965000076, 
                    31.526965637000146
                ], 
                [
                    34.9267875570001, 
                    31.494409485000105
                ], 
                [
                    34.881725708000175, 
                    31.429865621000076
                ], 
                [
                    34.867152954000204, 
                    31.396430970000083
                ], 
                [
                    34.878831827000084, 
                    31.362841289000144
                ], 
                [
                    34.900949341000086, 
                    31.34847524000004
                ], 
                [
                    34.92740767400008, 
                    31.344909567000073
                ], 
                [
                    34.95489953600023, 
                    31.3486302700001
                ], 
                [
                    34.98032434100017, 
                    31.35617502900014
                ], 
                [
                    35.040165649000215, 
                    31.363203024000043
                ], 
                [
                    35.16491255700012, 
                    31.362272848000188
                ], 
                [
                    35.22330692500006, 
                    31.3810313930001
                ], 
                [
                    35.33234419800013, 
                    31.458804423000018
                ], 
                [
                    35.3901184490002, 
                    31.487071432
                ], 
                [
                    35.458124634000086, 
                    31.491929016000128
                ], 
                [
                    35.4585380450001, 
                    31.49161895800013
                ], 
                [
                    35.45712755600019, 
                    31.433524394000088
                ], 
                [
                    35.456884400000064, 
                    31.42350942000003
                ], 
                [
                    35.45285363700023, 
                    31.400823466000148
                ], 
                [
                    35.435076945000134, 
                    31.360619202000137
                ], 
                [
                    35.41647342900015, 
                    31.331835429000122
                ], 
                [
                    35.42391483500009, 
                    31.324600728000163
                ], 
                [
                    35.42226119000023, 
                    31.30299998
                ], 
                [
                    35.40820520000014, 
                    31.282019349000095
                ], 
                [
                    35.395699504000135, 
                    31.25767974900016
                ], 
                [
                    35.4011772060002, 
                    31.230291239000124
                ], 
                [
                    35.41068566900017, 
                    31.204608053000143
                ], 
                [
                    35.42133101400006, 
                    31.184505921
                ], 
                [
                    35.436213827000216, 
                    31.159546204000108
                ], 
                [
                    35.44324182100016, 
                    31.132209371000087
                ], 
                [
                    35.438487590000165, 
                    31.103735657000144
                ], 
                [
                    35.39156538900008, 
                    31.023947246000077
                ], 
                [
                    35.385157511000074, 
                    30.99464670800002
                ], 
                [
                    35.38526086400006, 
                    30.963279114000088
                ], 
                [
                    35.37409875500006, 
                    30.94514068600016
                ], 
                [
                    35.34711028400008, 
                    30.922709635000146
                ], 
                [
                    35.33492802000009, 
                    30.912584534000118
                ], 
                [
                    35.32221561700007, 
                    30.889950256000148
                ], 
                [
                    35.31952844200012, 
                    30.86731597900011
                ], 
                [
                    35.320045206000174, 
                    30.84494008400013
                ], 
                [
                    35.31663456200013, 
                    30.82282257100003
                ], 
                [
                    35.31084680200016, 
                    30.813314107000124
                ], 
                [
                    35.29389693200008, 
                    30.800188293000176
                ], 
                [
                    35.28614546700007, 
                    30.792333476000138
                ], 
                [
                    35.27953088400014, 
                    30.780241191000144
                ], 
                [
                    35.27612023900022, 
                    30.768975728
                ], 
                [
                    35.2715727130001, 
                    30.74370595300003
                ], 
                [
                    35.263881904000215, 
                    30.71996698600016
                ], 
                [
                    35.263821249000074, 
                    30.719779765000126
                ], 
                [
                    35.205323527000104, 
                    30.61709869400012
                ], 
                [
                    35.162122029000074, 
                    30.49467722600015
                ], 
                [
                    35.15736779700015, 
                    30.470854391
                ], 
                [
                    35.14000451700022, 
                    30.430185038000147
                ], 
                [
                    35.14000451700022, 
                    30.406155497000114
                ], 
                [
                    35.144965454000186, 
                    30.395871887000013
                ], 
                [
                    35.15933150200007, 
                    30.37561472600011
                ], 
                [
                    35.162122029000074, 
                    30.36140370700015
                ], 
                [
                    35.15995162000016, 
                    30.347502747000178
                ], 
                [
                    35.15447391800009, 
                    30.33675404900005
                ], 
                [
                    35.147755981000074, 
                    30.32647043900006
                ], 
                [
                    35.14176151500013, 
                    30.313964743000057
                ], 
                [
                    35.13235640500008, 
                    30.2618748980001
                ], 
                [
                    35.12522505700022, 
                    30.24466664700013
                ], 
                [
                    35.12481164500011, 
                    30.216089579000155
                ], 
                [
                    35.1452755120001, 
                    30.154904684000044
                ], 
                [
                    35.1452755120001, 
                    30.123382060000083
                ], 
                [
                    35.12904911300009, 
                    30.089740702000043
                ], 
                [
                    35.08626102700006, 
                    30.034033509000025
                ], 
                [
                    35.07468550600018, 
                    29.994604391000095
                ], 
                [
                    35.07406538900014, 
                    29.982563782000014
                ], 
                [
                    35.07034468600014, 
                    29.97372711200002
                ], 
                [
                    35.06538374800007, 
                    29.965975647
                ], 
                [
                    35.061456340000206, 
                    29.957345683000156
                ], 
                [
                    35.054118286000204, 
                    29.92339426700015
                ], 
                [
                    35.053188110000036, 
                    29.86262278200003
                ], 
                [
                    35.04895064200011, 
                    29.842313945000015
                ], 
                [
                    35.00254520700011, 
                    29.733095805000133
                ], 
                [
                    34.99510380100017, 
                    29.708161927000063
                ], 
                [
                    34.989832804000145, 
                    29.651963807000087
                ], 
                [
                    34.98032434100017, 
                    29.627004090000113
                ], 
                [
                    34.96699182200021, 
                    29.608116354000074
                ], 
                [
                    34.95986047400018, 
                    29.586205547000034
                ], 
                [
                    34.955580276846405, 
                    29.55898709275
                ], 
                [
                    34.955577019000174, 
                    29.558986721000096
                ], 
                [
                    34.951345248000024, 
                    29.54564036700016
                ], 
                [
                    34.94499759200019, 
                    29.53685130400011
                ], 
                [
                    34.927744988000114, 
                    29.518011786000088
                ], 
                [
                    34.91976972700016, 
                    29.50739166900003
                ], 
                [
                    34.915782097000175, 
                    29.50023021
                ], 
                [
                    34.91407311300006, 
                    29.49380117400007
                ], 
                [
                    34.910817905000016, 
                    29.48993561400006
                ], 
                [
                    34.903005405000016, 
                    29.48969147300012
                ], 
                [
                    34.893728061000076, 
                    29.490545966000028
                ], 
                [
                    34.88672936250023, 
                    29.490057684000035
                ], 
                [
                    34.878108358000105, 
                    29.504298401000156
                ], 
                [
                    34.85526737500018, 
                    29.545717062000122
                ], 
                [
                    34.84823938000008, 
                    29.569643250000027
                ], 
                [
                    34.850099732000075, 
                    29.638760478
                ], 
                [
                    34.82436486800006, 
                    29.741699931000156
                ], 
                [
                    34.78519413300015, 
                    29.835699361000124
                ], 
                [
                    34.74137251800002, 
                    29.940240784000125
                ], 
                [
                    34.735067993000115, 
                    29.99455271400008
                ], 
                [
                    34.735584758000044, 
                    30.000702210000142
                ], 
                [
                    34.734964640000186, 
                    30.00669667600009
                ], 
                [
                    34.73320764200011, 
                    30.01258778900008
                ], 
                [
                    34.73041711400006, 
                    30.0181688440001
                ], 
                [
                    34.6916597900001, 
                    30.11454539000009
                ], 
                [
                    34.63264530400008, 
                    30.262029928000132
                ], 
                [
                    34.599469035000055, 
                    30.344505513000158
                ], 
                [
                    34.5884102790001, 
                    30.35881988600015
                ], 
                [
                    34.53383996600016, 
                    30.400212708000097
                ], 
                [
                    34.52691532400016, 
                    30.409617818000143
                ], 
                [
                    34.52474491400008, 
                    30.42114166200018
                ], 
                [
                    34.52650191200016, 
                    30.438711650000144
                ], 
                [
                    34.536010376000064, 
                    30.468580628000083
                ], 
                [
                    34.5362170810001, 
                    30.482171530000144
                ], 
                [
                    34.52629520700012, 
                    30.49452219600012
                ], 
                [
                    34.52629520700012, 
                    30.494573873000135
                ], 
                [
                    34.51037886600008, 
                    30.513332418000132
                ], 
                [
                    34.50438440000002, 
                    30.53033396500014
                ], 
                [
                    34.50221398900007, 
                    30.571675110000072
                ], 
                [
                    34.480406535000014, 
                    30.651205139000083
                ], 
                [
                    34.418808228000074, 
                    30.791299947000155
                ], 
                [
                    34.367855266000134, 
                    30.907416891000096
                ], 
                [
                    34.329511353000015, 
                    30.99449167900015
                ], 
                [
                    34.29798872900008, 
                    31.07877594000017
                ], 
                [
                    34.25861128700015, 
                    31.184144186000097
                ], 
                [
                    34.24835085700013, 
                    31.211448958000133
                ], 
                [
                    34.26439904800023, 
                    31.224193420000077
                ], 
                [
                    34.3158687750001, 
                    31.256904602000148
                ], 
                [
                    34.350905396000115, 
                    31.28925404900015
                ], 
                [
                    34.3537992760001, 
                    31.306358948000096
                ], 
                [
                    34.34553104600016, 
                    31.340723776000132
                ], 
                [
                    34.34584110500006, 
                    31.35772532200015
                ], 
                [
                    34.367338501000205, 
                    31.392813619
                ], 
                [
                    34.480406535000014, 
                    31.485624492000014
                ], 
                [
                    34.49549605400014, 
                    31.494409485000105
                ], 
                [
                    34.49570275900007, 
                    31.494409485000105
                ], 
                [
                    34.52825891100022, 
                    31.520144348000187
                ], 
                [
                    34.53042932100013, 
                    31.541383362000076
                ], 
                [
                    34.511412394000075, 
                    31.561588847000152
                ], 
                [
                    34.48120412500103, 
                    31.583141322999595
                ], 
                [
                    34.48121178500011, 
                    31.58315664300015
                ], 
                [
                    34.489512566000116, 
                    31.600409247000144
                ], 
                [
                    34.51392662900017, 
                    31.627142645000063
                ], 
                [
                    34.60271243600002, 
                    31.757757880000142
                ], 
                [
                    34.60962975400011, 
                    31.76552969000015
                ], 
                [
                    34.665944858000074, 
                    31.873887437000164
                ], 
                [
                    34.6932072270001, 
                    31.926459052
                ], 
                [
                    34.71192467500006, 
                    31.951605536000088
                ], 
                [
                    34.74333743600019, 
                    32.039862372000144
                ], 
                [
                    34.7439884770001, 
                    32.04462311400006
                ], 
                [
                    34.74268639400023, 
                    32.05560944200003
                ], 
                [
                    34.74333743600019, 
                    32.06037018400012
                ], 
                [
                    34.75700931100013, 
                    32.06659577000006
                ], 
                [
                    34.83765709700012, 
                    32.28070709800012
                ], 
                [
                    34.87322024800014, 
                    32.4303246110001
                ], 
                [
                    34.90414472700016, 
                    32.56061432500006
                ], 
                [
                    34.90984134200008, 
                    32.57025788000011
                ], 
                [
                    34.91586347700016, 
                    32.61489492400007
                ], 
                [
                    34.92090905000006, 
                    32.62824127800009
                ], 
                [
                    34.91911868600019, 
                    32.642971096000096
                ], 
                [
                    34.94206790500019, 
                    32.724514065
                ], 
                [
                    34.94752037900011, 
                    32.81415436400006
                ], 
                [
                    34.955577019000174, 
                    32.834377346000096
                ], 
                [
                    34.97046959700012, 
                    32.84137604400017
                ], 
                [
                    34.98316491000017, 
                    32.83877187700007
                ], 
                [
                    35.00342858200011, 
                    32.82754140800007
                ], 
                [
                    35.018728061000076, 
                    32.825018622000144
                ], 
                [
                    35.027679884000094, 
                    32.82660553600009
                ], 
                [
                    35.06275475400017, 
                    32.85834381700015
                ], 
                [
                    35.06706790500007, 
                    32.86684804900007
                ], 
                [
                    35.0755314460001, 
                    32.8930931660001
                ], 
                [
                    35.07960045700017, 
                    32.90582916900014
                ], 
                [
                    35.07781009200008, 
                    32.917873440000065
                ], 
                [
                    35.06544030000006, 
                    32.92308177300005
                ], 
                [
                    35.071543816000116, 
                    32.937933661000116
                ], 
                [
                    35.078461134000094, 
                    32.99884674700003
                ], 
                [
                    35.091970248000194, 
                    33.03119538000014
                ], 
                [
                    35.09620201900012, 
                    33.050360419000114
                ], 
                [
                    35.09213300900015, 
                    33.06769440300009
                ], 
                [
                    35.09644616000017, 
                    33.07135651200004
                ], 
                [
                    35.10181725400011, 
                    33.07762278900019
                ], 
                [
                    35.10645592500006, 
                    33.080755927000084
                ], 
                [
                    35.09961998800023, 
                    33.08759186400009
                ], 
                [
                    35.10425866000017, 
                    33.088527736000074
                ], 
                [
                    35.10523522200012, 
                    33.08901601800015
                ], 
                [
                    35.18527307200023, 
                    33.08397654200009
                ], 
                [
                    35.18961389100011, 
                    33.08552683600011
                ], 
                [
                    35.20067264800011, 
                    33.09273569800017
                ], 
                [
                    35.2071838790001, 
                    33.09480275500012
                ], 
                [
                    35.213178345000216, 
                    33.09444102000013
                ], 
                [
                    35.22733768700007, 
                    33.09136627200009
                ], 
                [
                    35.23446903500022, 
                    33.09092702300008
                ], 
                [
                    35.27146936000017, 
                    33.10118479400016
                ], 
                [
                    35.28366499800009, 
                    33.10118479400016
                ], 
                [
                    35.28882469800013, 
                    33.09920123000008
                ], 
                [
                    35.29462040200016, 
                    33.09697316500002
                ], 
                [
                    35.3057825110001, 
                    33.089376730000154
                ], 
                [
                    35.31570438700007, 
                    33.079222310000105
                ], 
                [
                    35.32262902800008, 
                    33.06736256900008
                ], 
                [
                    35.331930786000186, 
                    33.05715647400011
                ], 
                [
                    35.34515995300009, 
                    33.055580342000084
                ], 
                [
                    35.401590617000096, 
                    33.06793101000012
                ], 
                [
                    35.44944299300013, 
                    33.08521677700013
                ], 
                [
                    35.48013879400017, 
                    33.08738718700012
                ], 
                [
                    35.48509973100013, 
                    33.102605896000156
                ], 
                [
                    35.503703247000175, 
                    33.13061452300015
                ], 
                [
                    35.5122815350002, 
                    33.14740936300002
                ], 
                [
                    35.51765588400016, 
                    33.172885844000135
                ], 
                [
                    35.520033, 
                    33.22218516100004
                ], 
                [
                    35.52778446500011, 
                    33.24425099700012
                ], 
                [
                    35.536879516000084, 
                    33.25786773700004
                ], 
                [
                    35.54277063000009, 
                    33.271536153000156
                ], 
                [
                    35.54948856600012, 
                    33.281018779000036
                ], 
                [
                    35.561167440000105, 
                    33.28212982200013
                ], 
                [
                    35.56695520000008, 
                    33.27618703200004
                ], 
                [
                    35.58504195100008, 
                    33.25220916800011
                ], 
                [
                    35.5977543540001, 
                    33.24435435000008
                ], 
                [
                    35.597857707000145, 
                    33.24438018800008
                ], 
                [
                    35.59806441300012, 
                    33.24425099700012
                ], 
                [
                    35.60385217300009, 
                    33.24009104400001
                ], 
                [
                    35.603892448000096, 
                    33.2403226230001
                ], 
                [
                    35.604575643000175, 
                    33.24425099700012
                ], 
                [
                    35.604575643000175, 
                    33.24430267400005
                ], 
                [
                    35.604575643000175, 
                    33.24435435000008
                ], 
                [
                    35.6014750570001, 
                    33.262725322000065
                ], 
                [
                    35.61036340300015, 
                    33.270270081000106
                ], 
                [
                    35.62471610897026, 
                    33.2729243490444
                ], 
                [
                    35.64054244000013, 
                    33.27585113600013
                ], 
                [
                    35.66048954300007, 
                    33.289261169000085
                ], 
                [
                    35.698523397000116, 
                    33.32266998300004
                ], 
                [
                    35.716196737000274, 
                    33.32672658300005
                ], 
                [
                    35.72942590300008, 
                    33.32781178800006
                ], 
                [
                    35.74368859900008, 
                    33.33117075700015
                ], 
                [
                    35.75753788200021, 
                    33.336312561000156
                ], 
                [
                    35.76942346200005, 
                    33.342642924000174
                ], 
                [
                    35.785753215000085, 
                    33.357887472000115
                ], 
                [
                    35.8057003170002, 
                    33.39134796200001
                ], 
                [
                    35.82109989400013, 
                    33.40672170000009
                ], 
                [
                    35.82244348100008, 
                    33.40137319000003
                ], 
                [
                    35.816965779000185, 
                    33.39519785600005
                ], 
                [
                    35.81541548700008, 
                    33.37886810400012
                ], 
                [
                    35.812314901, 
                    33.37336456300012
                ], 
                [
                    35.80993778500007, 
                    33.36003204400002
                ], 
                [
                    35.79350467900011, 
                    33.34992930200015
                ], 
                [
                    35.785753215000085, 
                    33.342875468000145
                ], 
                [
                    35.763842407000226, 
                    33.334400533000135
                ], 
                [
                    35.80208296700002, 
                    33.31248972600018
                ], 
                [
                    35.76859663900015, 
                    33.27269887300015
                ], 
                [
                    35.77562463400014, 
                    33.26489573200014
                ], 
                [
                    35.80363326000017, 
                    33.24846262600009
                ]
            ]
        ]
    }, 
    "type": "Feature", 
    "properties": {
        "ADMIN": "Israel", 
        "ISO_A3": "ISR"
    }
}