{
    "geometry": {
        "type": "MultiPolygon", 
        "coordinates": [
            [
                [
                    [
                        -62.547596808999884, 
                        17.104641018000123
                    ], 
                    [
                        -62.56574459499987, 
                        17.100531317000062
                    ], 
                    [
                        -62.612172003999945, 
                        17.10415273600013
                    ], 
                    [
                        -62.62637285099996, 
                        17.140692450000174
                    ], 
                    [
                        -62.61864173099994, 
                        17.182806708000115
                    ], 
                    [
                        -62.599232550999915, 
                        17.20294830900015
                    ], 
                    [
                        -62.57843990799995, 
                        17.202541408000158
                    ], 
                    [
                        -62.56037350199992, 
                        17.196722723
                    ], 
                    [
                        -62.54649817599994, 
                        17.18378327
                    ], 
                    [
                        -62.53844153599991, 
                        17.16193268400015
                    ], 
                    [
                        -62.53726152299987, 
                        17.152899481000148
                    ], 
                    [
                        -62.53677324099988, 
                        17.12970612200003
                    ], 
                    [
                        -62.53844153599991, 
                        17.120998440000122
                    ], 
                    [
                        -62.54356848899991, 
                        17.108872789000046
                    ], 
                    [
                        -62.547596808999884, 
                        17.104641018000123
                    ]
                ]
            ], 
            [
                [
                    [
                        -62.695464647999955, 
                        17.333238023000106
                    ], 
                    [
                        -62.67813066299988, 
                        17.292222398000106
                    ], 
                    [
                        -62.66685950399997, 
                        17.27350495000006
                    ], 
                    [
                        -62.650461391999954, 
                        17.265611070000162
                    ], 
                    [
                        -62.63683020699992, 
                        17.258205471000096
                    ], 
                    [
                        -62.62482662699992, 
                        17.24184804900007
                    ], 
                    [
                        -62.62474524599992, 
                        17.225287177
                    ], 
                    [
                        -62.647043423999946, 
                        17.217189846000068
                    ], 
                    [
                        -62.65973873599992, 
                        17.225490627000156
                    ], 
                    [
                        -62.670480923999946, 
                        17.26316966400013
                    ], 
                    [
                        -62.690297003999945, 
                        17.274969794000114
                    ], 
                    [
                        -62.70335852799994, 
                        17.28912995000003
                    ], 
                    [
                        -62.712554490999906, 
                        17.29230377800009
                    ], 
                    [
                        -62.7440486319999, 
                        17.290594794000086
                    ], 
                    [
                        -62.75694739499994, 
                        17.29230377800009
                    ], 
                    [
                        -62.78872636599988, 
                        17.304673570000134
                    ], 
                    [
                        -62.83161373599995, 
                        17.33014557500003
                    ], 
                    [
                        -62.86107337099992, 
                        17.362290757
                    ], 
                    [
                        -62.85313880099997, 
                        17.39472077000009
                    ], 
                    [
                        -62.84923255099997, 
                        17.398138739
                    ], 
                    [
                        -62.84654700399989, 
                        17.39996979400017
                    ], 
                    [
                        -62.843576626999976, 
                        17.401068427000112
                    ], 
                    [
                        -62.83885657499988, 
                        17.40216705900015
                    ], 
                    [
                        -62.82664954299989, 
                        17.407171942
                    ], 
                    [
                        -62.8223363919999, 
                        17.410101630000113
                    ], 
                    [
                        -62.819569464999944, 
                        17.415838934000092
                    ], 
                    [
                        -62.71996008999989, 
                        17.358547268000066
                    ], 
                    [
                        -62.695464647999955, 
                        17.333238023000106
                    ]
                ]
            ]
        ]
    }, 
    "type": "Feature", 
    "properties": {
        "ADMIN": "Saint Kitts and Nevis", 
        "ISO_A3": "KNA"
    }
}