{
    "geometry": {
        "type": "Polygon", 
        "coordinates": [
            [
                [
                    -63.0175685850526, 
                    18.033391472135662
                ], 
                [
                    -63.0858861909999, 
                    18.058511251000112
                ], 
                [
                    -63.10700436099992, 
                    18.0621092720001
                ], 
                [
                    -63.10700436099992, 
                    18.06211985900009
                ], 
                [
                    -63.10700436099992, 
                    18.066961981000077
                ], 
                [
                    -63.1153051419999, 
                    18.065375067000048
                ], 
                [
                    -63.13052324099988, 
                    18.060248114000018
                ], 
                [
                    -63.134348110999895, 
                    18.059475002000084
                ], 
                [
                    -63.1438695949999, 
                    18.064683335000097
                ], 
                [
                    -63.14683997299991, 
                    18.07029857000009
                ], 
                [
                    -63.14362545499995, 
                    18.0741641300001
                ], 
                [
                    -63.11375891799986, 
                    18.074652411000073
                ], 
                [
                    -63.09609941299993, 
                    18.07880280200004
                ], 
                [
                    -63.08381100199989, 
                    18.087958075000103
                ], 
                [
                    -63.07909094999988, 
                    18.10419342700004
                ], 
                [
                    -63.070871548999975, 
                    18.11001211100009
                ], 
                [
                    -63.05211341099994, 
                    18.116848049000026
                ], 
                [
                    -63.03140214799993, 
                    18.121893622000044
                ], 
                [
                    -63.0176488919999, 
                    18.12213776200008
                ], 
                [
                    -63.01793372299994, 
                    18.100531317000105
                ], 
                [
                    -63.01109778599991, 
                    18.070746161000073
                ], 
                [
                    -63.01073157499991, 
                    18.040838934000107
                ], 
                [
                    -63.017567511999914, 
                    18.03339264500005
                ], 
                [
                    -63.0175685850526, 
                    18.033391472135662
                ]
            ]
        ]
    }, 
    "type": "Feature", 
    "properties": {
        "ADMIN": "Saint Martin", 
        "ISO_A3": "MAF"
    }
}