{
    "geometry": {
        "type": "MultiPolygon", 
        "coordinates": [
            [
                [
                    [
                        131.81299889400023, 
                        2.960435289000117
                    ], 
                    [
                        131.79517662900017, 
                        2.949042059000149
                    ], 
                    [
                        131.77881920700017, 
                        2.952826239
                    ], 
                    [
                        131.77540123800023, 
                        2.964056708000086
                    ], 
                    [
                        131.78500410200004, 
                        2.974066473000079
                    ], 
                    [
                        131.79151451900012, 
                        2.977728583000115
                    ], 
                    [
                        131.80640709700018, 
                        2.974269924000126
                    ], 
                    [
                        131.81299889400023, 
                        2.960435289000117
                    ]
                ]
            ], 
            [
                [
                    [
                        131.16049238400015, 
                        3.022772528000104
                    ], 
                    [
                        131.13843834700006, 
                        3.018947658
                    ], 
                    [
                        131.13111412900005, 
                        3.029486395000134
                    ], 
                    [
                        131.1421004570001, 
                        3.047308661000116
                    ], 
                    [
                        131.16089928500017, 
                        3.058783270000063
                    ], 
                    [
                        131.18360436300011, 
                        3.060288804000109
                    ], 
                    [
                        131.19206790500007, 
                        3.048814195000162
                    ], 
                    [
                        131.18043053500006, 
                        3.033270575000159
                    ], 
                    [
                        131.16049238400015, 
                        3.022772528000104
                    ]
                ]
            ], 
            [
                [
                    [
                        132.2267358730002, 
                        5.304348049000097
                    ], 
                    [
                        132.22038821700008, 
                        5.292222398000192
                    ], 
                    [
                        132.21387780000006, 
                        5.30711497600015
                    ], 
                    [
                        132.2202254570001, 
                        5.310248114000117
                    ], 
                    [
                        132.2267358730002, 
                        5.304348049000097
                    ]
                ]
            ], 
            [
                [
                    [
                        134.1733504570001, 
                        6.893744208000072
                    ], 
                    [
                        134.15967858200005, 
                        6.884466864000117
                    ], 
                    [
                        134.145274285, 
                        6.899155992000118
                    ], 
                    [
                        134.13672936300006, 
                        6.919094143000095
                    ], 
                    [
                        134.13965905000012, 
                        6.934271552000084
                    ], 
                    [
                        134.15984134200002, 
                        6.935003973000121
                    ], 
                    [
                        134.17318769600016, 
                        6.924872137000151
                    ], 
                    [
                        134.17774498800011, 
                        6.909165757000096
                    ], 
                    [
                        134.1733504570001, 
                        6.893744208000072
                    ]
                ]
            ], 
            [
                [
                    [
                        134.2433374360002, 
                        6.992824611000131
                    ], 
                    [
                        134.23438561300006, 
                        6.984320380000099
                    ], 
                    [
                        134.23047936300006, 
                        6.989203192000076
                    ], 
                    [
                        134.2356876960001, 
                        7.008490302000112
                    ], 
                    [
                        134.27149498800011, 
                        7.074530341000127
                    ], 
                    [
                        134.27930748800006, 
                        7.072739976000136
                    ], 
                    [
                        134.28321373800006, 
                        7.068752346000153
                    ], 
                    [
                        134.28443444100012, 
                        7.062648830000086
                    ], 
                    [
                        134.28500410200016, 
                        7.054632880000128
                    ], 
                    [
                        134.2809350920002, 
                        7.049627997000087
                    ], 
                    [
                        134.27149498800011, 
                        7.033596096000096
                    ], 
                    [
                        134.27995853000002, 
                        7.020493882000125
                    ], 
                    [
                        134.27605228000002, 
                        7.016913153000161
                    ], 
                    [
                        134.26644941500015, 
                        7.016424872000172
                    ], 
                    [
                        134.25782311300023, 
                        7.013088283000144
                    ], 
                    [
                        134.2433374360002, 
                        6.992824611000131
                    ]
                ]
            ], 
            [
                [
                    [
                        134.41651451900023, 
                        7.247951565000093
                    ], 
                    [
                        134.39291425899998, 
                        7.224514065000122
                    ], 
                    [
                        134.37794030000023, 
                        7.219142971000153
                    ], 
                    [
                        134.36491946700008, 
                        7.221502997000115
                    ], 
                    [
                        134.355235222, 
                        7.228013414000102
                    ], 
                    [
                        134.34913170700023, 
                        7.237779039000145
                    ], 
                    [
                        134.34717858200005, 
                        7.249904690000136
                    ], 
                    [
                        134.347911004, 
                        7.267808335000098
                    ], 
                    [
                        134.35084069100006, 
                        7.271185614000117
                    ], 
                    [
                        134.38257897200018, 
                        7.237941799000112
                    ], 
                    [
                        134.38900800899998, 
                        7.238918361000089
                    ], 
                    [
                        134.40170332100016, 
                        7.246486721000125
                    ], 
                    [
                        134.43685957100004, 
                        7.277899481000162
                    ], 
                    [
                        134.44385826900012, 
                        7.287420966000155
                    ], 
                    [
                        134.44459069100006, 
                        7.299221096000125
                    ], 
                    [
                        134.44141686300006, 
                        7.310248114000075
                    ], 
                    [
                        134.44109134200002, 
                        7.31671784100017
                    ], 
                    [
                        134.449473504, 
                        7.314764716000127
                    ], 
                    [
                        134.45484459700006, 
                        7.311590887000165
                    ], 
                    [
                        134.45899498800011, 
                        7.307684637000165
                    ], 
                    [
                        134.46216881600017, 
                        7.302150783000144
                    ], 
                    [
                        134.46387780000018, 
                        7.294256903000175
                    ], 
                    [
                        134.44922936300017, 
                        7.290025132000068
                    ], 
                    [
                        134.45093834700018, 
                        7.281642971000096
                    ], 
                    [
                        134.45899498800011, 
                        7.271877346000153
                    ], 
                    [
                        134.46387780000018, 
                        7.263576565000079
                    ], 
                    [
                        134.45834394600016, 
                        7.256740627000156
                    ], 
                    [
                        134.4461369150001, 
                        7.253810940000136
                    ], 
                    [
                        134.42595462300002, 
                        7.253322658000144
                    ], 
                    [
                        134.41651451900023, 
                        7.247951565000093
                    ]
                ]
            ], 
            [
                [
                    [
                        134.51189212300008, 
                        7.347316799000097
                    ], 
                    [
                        134.52735436300006, 
                        7.331529039000145
                    ], 
                    [
                        134.52222741000017, 
                        7.311346747000115
                    ], 
                    [
                        134.51189212300008, 
                        7.308579820000162
                    ], 
                    [
                        134.50326582100016, 
                        7.319322007000082
                    ], 
                    [
                        134.49659264400012, 
                        7.333807684000121
                    ], 
                    [
                        134.49122155000023, 
                        7.34267812700007
                    ], 
                    [
                        134.47779381600006, 
                        7.346869208000101
                    ], 
                    [
                        134.468028191, 
                        7.343817450000103
                    ], 
                    [
                        134.449473504, 
                        7.328355210000083
                    ], 
                    [
                        134.44776451900012, 
                        7.34320709800015
                    ], 
                    [
                        134.44955488399998, 
                        7.355414130000128
                    ], 
                    [
                        134.456879102, 
                        7.36269765800013
                    ], 
                    [
                        134.47136478000002, 
                        7.362494208000086
                    ], 
                    [
                        134.48861738400015, 
                        7.357855536000059
                    ], 
                    [
                        134.51189212300008, 
                        7.347316799000097
                    ]
                ]
            ], 
            [
                [
                    [
                        134.65821373800011, 
                        7.591050523000178
                    ], 
                    [
                        134.64535566500015, 
                        7.557440497000158
                    ], 
                    [
                        134.625743035, 
                        7.530503648000192
                    ], 
                    [
                        134.62484785200004, 
                        7.523911851000122
                    ], 
                    [
                        134.63599694100006, 
                        7.509466864000075
                    ], 
                    [
                        134.63599694100006, 
                        7.503159898000135
                    ], 
                    [
                        134.63135826900012, 
                        7.49868398600016
                    ], 
                    [
                        134.62289472700016, 
                        7.472805080000157
                    ], 
                    [
                        134.59961998800023, 
                        7.442572333000143
                    ], 
                    [
                        134.59424889400012, 
                        7.421128648000121
                    ], 
                    [
                        134.6010848320001, 
                        7.383612372000101
                    ], 
                    [
                        134.59620201900023, 
                        7.369940497000158
                    ], 
                    [
                        134.591644727, 
                        7.366888739000075
                    ], 
                    [
                        134.58668053500006, 
                        7.368597723000079
                    ], 
                    [
                        134.57496178500017, 
                        7.369574286000145
                    ], 
                    [
                        134.56560306100002, 
                        7.375311591000113
                    ], 
                    [
                        134.55933678500017, 
                        7.376166083000115
                    ], 
                    [
                        134.55469811300023, 
                        7.372544664000159
                    ], 
                    [
                        134.54420006600017, 
                        7.358547268000095
                    ], 
                    [
                        134.538828972, 
                        7.355698960000069
                    ], 
                    [
                        134.52800540500002, 
                        7.357570705000128
                    ], 
                    [
                        134.52377363400004, 
                        7.361029364000117
                    ], 
                    [
                        134.52230879000015, 
                        7.367010809000135
                    ], 
                    [
                        134.51343834700012, 
                        7.391791083000101
                    ], 
                    [
                        134.50586998800023, 
                        7.424017645000149
                    ], 
                    [
                        134.49927819100017, 
                        7.438218492000161
                    ], 
                    [
                        134.49122155000023, 
                        7.444566148000178
                    ], 
                    [
                        134.48552493600008, 
                        7.444159247000172
                    ], 
                    [
                        134.48292076900017, 
                        7.445786851000193
                    ], 
                    [
                        134.48438561300023, 
                        7.458726304000109
                    ], 
                    [
                        134.48755944100017, 
                        7.469916083000129
                    ], 
                    [
                        134.49333743600008, 
                        7.480129299000154
                    ], 
                    [
                        134.50131269600004, 
                        7.488348700000159
                    ], 
                    [
                        134.51156660200004, 
                        7.493475653000161
                    ], 
                    [
                        134.51547285200004, 
                        7.480536200000159
                    ], 
                    [
                        134.52442467500023, 
                        7.478827216000155
                    ], 
                    [
                        134.53386478000007, 
                        7.485988674000112
                    ], 
                    [
                        134.538828972, 
                        7.499701239000132
                    ], 
                    [
                        134.53614342500023, 
                        7.507961330000114
                    ], 
                    [
                        134.52833092500023, 
                        7.516099351000136
                    ], 
                    [
                        134.51156660200004, 
                        7.527655341000155
                    ], 
                    [
                        134.51929772200006, 
                        7.534857489000103
                    ], 
                    [
                        134.53272545700023, 
                        7.553697007000139
                    ], 
                    [
                        134.54476972700016, 
                        7.561835028000147
                    ], 
                    [
                        134.54639733200005, 
                        7.561183986000103
                    ], 
                    [
                        134.54721113399998, 
                        7.566717841000127
                    ], 
                    [
                        134.547129754, 
                        7.580389716000155
                    ], 
                    [
                        134.54639733200005, 
                        7.581610419000171
                    ], 
                    [
                        134.55697675900004, 
                        7.601141669000157
                    ], 
                    [
                        134.56910241, 
                        7.613714911000145
                    ], 
                    [
                        134.58611087300008, 
                        7.620550848000065
                    ], 
                    [
                        134.6111759770001, 
                        7.622544664000188
                    ], 
                    [
                        134.63502037900017, 
                        7.62933991100013
                    ], 
                    [
                        134.64096113399998, 
                        7.645982164000174
                    ], 
                    [
                        134.63298587300002, 
                        7.698187567000105
                    ], 
                    [
                        134.6237085300002, 
                        7.717962958000115
                    ], 
                    [
                        134.62142988400004, 
                        7.729681708000115
                    ], 
                    [
                        134.62533613400004, 
                        7.734076239000089
                    ], 
                    [
                        134.63428795700023, 
                        7.732163804000138
                    ], 
                    [
                        134.64332116000006, 
                        7.72646719000015
                    ], 
                    [
                        134.648203972, 
                        7.719427802000084
                    ], 
                    [
                        134.66016686300023, 
                        7.686021226000108
                    ], 
                    [
                        134.663340691, 
                        7.638576565000093
                    ], 
                    [
                        134.65821373800011, 
                        7.591050523000178
                    ]
                ]
            ], 
            [
                [
                    [
                        134.7181078552421, 
                        8.058676434273835
                    ], 
                    [
                        134.70124501330545, 
                        8.050245013305414
                    ], 
                    [
                        134.6925254682392, 
                        8.060799453942082
                    ], 
                    [
                        134.6928135923371, 
                        8.075539276210506
                    ], 
                    [
                        134.70967643427375, 
                        8.096617828631437
                    ], 
                    [
                        134.72224774359532, 
                        8.09646618436939
                    ], 
                    [
                        134.7273429907992, 
                        8.08287885849235
                    ], 
                    [
                        134.7181078552421, 
                        8.058676434273835
                    ]
                ]
            ]
        ]
    }, 
    "type": "Feature", 
    "properties": {
        "ADMIN": "Palau", 
        "ISO_A3": "PLW"
    }
}