{
    "geometry": {
        "type": "Polygon", 
        "coordinates": [
            [
                [
                    -56.90636673999998, 
                    -30.108548685999907
                ], 
                [
                    -56.869211384999886, 
                    -30.102967630999984
                ], 
                [
                    -56.831280884999984, 
                    -30.10203745499993
                ], 
                [
                    -56.79515905799988, 
                    -30.12384491
                ], 
                [
                    -56.77660721899994, 
                    -30.150923359999922
                ], 
                [
                    -56.766995401999935, 
                    -30.161362
                ], 
                [
                    -56.70477697799993, 
                    -30.198362324999906
                ], 
                [
                    -56.67374528, 
                    -30.211281432999925
                ], 
                [
                    -56.656821248999904, 
                    -30.221306660999943
                ], 
                [
                    -56.641783406999906, 
                    -30.233915709999877
                ], 
                [
                    -56.6325850019999, 
                    -30.24745493499995
                ], 
                [
                    -56.62927770999991, 
                    -30.267712096999944
                ], 
                [
                    -56.632429972999944, 
                    -30.27815073699989
                ], 
                [
                    -56.63134476699997, 
                    -30.284661966999863
                ], 
                [
                    -56.61540258799994, 
                    -30.293343606999912
                ], 
                [
                    -56.605196492999966, 
                    -30.29561736999993
                ], 
                [
                    -56.59561051399996, 
                    -30.295410664999878
                ], 
                [
                    -56.5858178309999, 
                    -30.296547545999886
                ], 
                [
                    -56.575017455999955, 
                    -30.30243865999998
                ], 
                [
                    -56.569617268999906, 
                    -30.3080197149999
                ], 
                [
                    -56.560780599, 
                    -30.320525410999906
                ], 
                [
                    -56.52375443599993, 
                    -30.3573190299999
                ], 
                [
                    -56.51130041499994, 
                    -30.366000671999956
                ], 
                [
                    -56.494557251, 
                    -30.379333190999972
                ], 
                [
                    -56.44127884999992, 
                    -30.408788756999883
                ], 
                [
                    -56.42463903899991, 
                    -30.423568216999897
                ], 
                [
                    -56.400454467999936, 
                    -30.4589148969999
                ], 
                [
                    -56.38598506699989, 
                    -30.47576141399989
                ], 
                [
                    -56.372600870999946, 
                    -30.485889993999933
                ], 
                [
                    -56.326531331999945, 
                    -30.50831756599993
                ], 
                [
                    -56.26795609599992, 
                    -30.551105651999947
                ], 
                [
                    -56.235089884999894, 
                    -30.565368346999932
                ], 
                [
                    -56.21509110499997, 
                    -30.581904805999926
                ], 
                [
                    -56.18351680599997, 
                    -30.614564310999896
                ], 
                [
                    -56.177832397999936, 
                    -30.625519713999964
                ], 
                [
                    -56.17517106199992, 
                    -30.63606170699994
                ], 
                [
                    -56.17080440299992, 
                    -30.64577687599997
                ], 
                [
                    -56.159642293999894, 
                    -30.653941751999895
                ], 
                [
                    -56.14031530799994, 
                    -30.66479380199985
                ], 
                [
                    -56.13168534399992, 
                    -30.67192514999988
                ], 
                [
                    -56.125044921999915, 
                    -30.680296731999945
                ], 
                [
                    -56.09189449099998, 
                    -30.736107279999914
                ], 
                [
                    -56.07685664899992, 
                    -30.752333678999932
                ], 
                [
                    -56.011356770999924, 
                    -30.798222350999893
                ], 
                [
                    -55.99531123899996, 
                    -30.825817565999984
                ], 
                [
                    -55.988955037999915, 
                    -30.855789896999937
                ], 
                [
                    -55.993864298999966, 
                    -30.8854521679999
                ], 
                [
                    -56.011356770999924, 
                    -30.91263397199988
                ], 
                [
                    -56.01551672399995, 
                    -30.934338073999882
                ], 
                [
                    -56.01634354699988, 
                    -30.999863789999978
                ], 
                [
                    -56.02238968899991, 
                    -31.045545755999896
                ], 
                [
                    -56.022182983999954, 
                    -31.06714650499987
                ], 
                [
                    -56.01701787399989, 
                    -31.074296298999926
                ], 
                [
                    -56.011356770999924, 
                    -31.082132669999936
                ], 
                [
                    -56.00987402099989, 
                    -31.081945497999897
                ], 
                [
                    -55.9851568199999, 
                    -31.078825378999937
                ], 
                [
                    -55.91934688399991, 
                    -31.082442728999922
                ], 
                [
                    -55.88818599399994, 
                    -31.07696502699993
                ], 
                [
                    -55.86425980699994, 
                    -31.07675832099997
                ], 
                [
                    -55.854596313999906, 
                    -31.074587910999895
                ], 
                [
                    -55.846586465999934, 
                    -31.069316914999945
                ], 
                [
                    -55.84214229399993, 
                    -31.06394256499989
                ], 
                [
                    -55.83839575199991, 
                    -31.05815480599992
                ], 
                [
                    -55.83247880099992, 
                    -31.05174692799997
                ], 
                [
                    -55.77814103199995, 
                    -31.020431009999882
                ], 
                [
                    -55.76359411699988, 
                    -31.008442076999913
                ], 
                [
                    -55.755506755, 
                    -30.992939147999905
                ], 
                [
                    -55.74488724799991, 
                    -30.95862599699997
                ], 
                [
                    -55.73189062499998, 
                    -30.945396829999893
                ], 
                [
                    -55.71274450699988, 
                    -30.943433125999945
                ], 
                [
                    -55.688301554999924, 
                    -30.947773945999927
                ], 
                [
                    -55.66582230599994, 
                    -30.949324238999864
                ], 
                [
                    -55.65274816899998, 
                    -30.938988952999935
                ], 
                [
                    -55.65106868499993, 
                    -30.91997202499988
                ], 
                [
                    -55.65458268299997, 
                    -30.878734232999875
                ], 
                [
                    -55.64967342099993, 
                    -30.860957539999944
                ], 
                [
                    -55.63404130099988, 
                    -30.847625019999924
                ], 
                [
                    -55.61290563999995, 
                    -30.843387552999957
                ], 
                [
                    -55.59187333199992, 
                    -30.84834849099991
                ], 
                [
                    -55.56386470499993, 
                    -30.876460469999955
                ], 
                [
                    -55.52748449699993, 
                    -30.89454722099987
                ], 
                [
                    -55.511309773999955, 
                    -30.90612274199991
                ], 
                [
                    -55.4890889079999, 
                    -30.929687194999914
                ], 
                [
                    -55.44258011899987, 
                    -30.965550638999957
                ], 
                [
                    -55.36857946799995, 
                    -31.03738087899997
                ], 
                [
                    -55.35385168499997, 
                    -31.05629445399991
                ], 
                [
                    -55.3484256589999, 
                    -31.07272755999989
                ], 
                [
                    -55.344963338999946, 
                    -31.1084876499999
                ], 
                [
                    -55.33803869699997, 
                    -31.125644225999864
                ], 
                [
                    -55.32692826299996, 
                    -31.134945983999984
                ], 
                [
                    -55.29370031699992, 
                    -31.153652851999965
                ], 
                [
                    -55.282228149999895, 
                    -31.169052429999866
                ], 
                [
                    -55.268740600999934, 
                    -31.21060028099994
                ], 
                [
                    -55.259981445999955, 
                    -31.228687031999954
                ], 
                [
                    -55.24434932499992, 
                    -31.24460337299989
                ], 
                [
                    -55.227554484999956, 
                    -31.2534917199999
                ], 
                [
                    -55.18828039599998, 
                    -31.2665141799999
                ], 
                [
                    -55.169625203999914, 
                    -31.276436055999923
                ], 
                [
                    -55.12223791499994, 
                    -31.313539732999914
                ], 
                [
                    -55.10244584199995, 
                    -31.32428843099993
                ], 
                [
                    -55.08725297099991, 
                    -31.326768899999905
                ], 
                [
                    -55.07425634799998, 
                    -31.320567727999915
                ], 
                [
                    -55.061104695999916, 
                    -31.30485809299995
                ], 
                [
                    -55.04234615099992, 
                    -31.272611998999892
                ], 
                [
                    -55.029375366999915, 
                    -31.26878794299995
                ], 
                [
                    -55.01149532099993, 
                    -31.287804869999917
                ], 
                [
                    -54.99534643599995, 
                    -31.311782734999937
                ], 
                [
                    -54.96963741099995, 
                    -31.340824889999922
                ], 
                [
                    -54.94080196099992, 
                    -31.36562957799987
                ], 
                [
                    -54.90028763899991, 
                    -31.38206268299993
                ], 
                [
                    -54.887807779999946, 
                    -31.39322479299996
                ], 
                [
                    -54.87615474499995, 
                    -31.406350605999933
                ], 
                [
                    -54.8633648279999, 
                    -31.41761606899989
                ], 
                [
                    -54.84990311699994, 
                    -31.425057474999917
                ], 
                [
                    -54.819775756999945, 
                    -31.43528940799989
                ], 
                [
                    -54.654126952999945, 
                    -31.45575327499995
                ], 
                [
                    -54.61968461099988, 
                    -31.45564992199992
                ], 
                [
                    -54.604543416999974, 
                    -31.45978403799994
                ], 
                [
                    -54.591520955999925, 
                    -31.471049498999903
                ], 
                [
                    -54.57384761599994, 
                    -31.502468769999936
                ], 
                [
                    -54.562375447999926, 
                    -31.515904641999896
                ], 
                [
                    -54.50966548699998, 
                    -31.552284850999882
                ], 
                [
                    -54.49504105699992, 
                    -31.5656173699999
                ], 
                [
                    -54.4831554779999, 
                    -31.583910827999972
                ], 
                [
                    -54.47896968699996, 
                    -31.60148081399994
                ], 
                [
                    -54.47736771699991, 
                    -31.64209848999988
                ], 
                [
                    -54.46722070599995, 
                    -31.66423742299989
                ], 
                [
                    -54.463725138999905, 
                    -31.671864115999966
                ], 
                [
                    -54.43649165799991, 
                    -31.694291686999875
                ], 
                [
                    -54.40367712499997, 
                    -31.714652200999893
                ], 
                [
                    -54.373498087999906, 
                    -31.738940123999896
                ], 
                [
                    -54.3429573169999, 
                    -31.769325865999946
                ], 
                [
                    -54.27422766199993, 
                    -31.823379414999934
                ], 
                [
                    -54.21877884899996, 
                    -31.856659036999886
                ], 
                [
                    -54.16958288599997, 
                    -31.895933124999942
                ], 
                [
                    -54.146276814999965, 
                    -31.909885762999934
                ], 
                [
                    -54.13506302899992, 
                    -31.908955586999895
                ], 
                [
                    -54.12550288999992, 
                    -31.89851694799995
                ], 
                [
                    -54.107312784999976, 
                    -31.88394419299989
                ], 
                [
                    -54.08845088699994, 
                    -31.878156432999916
                ], 
                [
                    -54.0688138429999, 
                    -31.879913431999896
                ], 
                [
                    -54.049745239999936, 
                    -31.887148131999965
                ], 
                [
                    -54.03264033999997, 
                    -31.898103535999937
                ], 
                [
                    -54.02664587399994, 
                    -31.904821471999867
                ], 
                [
                    -54.01770585099993, 
                    -31.91960093199988
                ], 
                [
                    -54.008714152999886, 
                    -31.926525573999868
                ], 
                [
                    -53.998895630999925, 
                    -31.929729511999938
                ], 
                [
                    -53.96597774299997, 
                    -31.9325200399999
                ], 
                [
                    -53.94876949099998, 
                    -31.936964212999897
                ], 
                [
                    -53.93435176699998, 
                    -31.94254526799992
                ], 
                [
                    -53.905826375999936, 
                    -31.959288431999965
                ], 
                [
                    -53.89414750199995, 
                    -31.97014048299991
                ], 
                [
                    -53.889755004999955, 
                    -31.980372415999895
                ], 
                [
                    -53.88727453599998, 
                    -31.99050099699994
                ], 
                [
                    -53.88143509999989, 
                    -32.001249694999956
                ], 
                [
                    -53.87109981299997, 
                    -32.01148162799994
                ], 
                [
                    -53.85807735199995, 
                    -32.02119679699989
                ], 
                [
                    -53.830430460999935, 
                    -32.03644134499993
                ], 
                [
                    -53.77182938699991, 
                    -32.047086689999915
                ], 
                [
                    -53.75730830999996, 
                    -32.055044860999885
                ], 
                [
                    -53.75136551899996, 
                    -32.068790791999916
                ], 
                [
                    -53.750021931999896, 
                    -32.10403411899989
                ], 
                [
                    -53.72144486499994, 
                    -32.16242848699996
                ], 
                [
                    -53.67059525600001, 
                    -32.226403909999945
                ], 
                [
                    -53.65855464699993, 
                    -32.25430918399992
                ], 
                [
                    -53.6518367109999, 
                    -32.28831227599996
                ], 
                [
                    -53.648684448999944, 
                    -32.33864512099994
                ], 
                [
                    -53.643878539999946, 
                    -32.35559499099995
                ], 
                [
                    -53.63478348899989, 
                    -32.36872080499991
                ], 
                [
                    -53.609307006999956, 
                    -32.387841084999906
                ], 
                [
                    -53.598920043999925, 
                    -32.3999333699999
                ], 
                [
                    -53.581970174999924, 
                    -32.42577158599991
                ], 
                [
                    -53.561299601999906, 
                    -32.449542744999874
                ], 
                [
                    -53.537631795999886, 
                    -32.47021331799989
                ], 
                [
                    -53.47463822399996, 
                    -32.508247171999926
                ], 
                [
                    -53.415623738999926, 
                    -32.56416107199992
                ], 
                [
                    -53.35908972199988, 
                    -32.580284117999895
                ], 
                [
                    -53.31604325399988, 
                    -32.60271168999989
                ], 
                [
                    -53.299093383999974, 
                    -32.60715586399989
                ], 
                [
                    -53.26689896699992, 
                    -32.607362568999946
                ], 
                [
                    -53.23372269799992, 
                    -32.62462249699985
                ], 
                [
                    -53.201476603999936, 
                    -32.637231546999956
                ], 
                [
                    -53.18612870399997, 
                    -32.646740010999864
                ], 
                [
                    -53.119776164999934, 
                    -32.707408141999935
                ], 
                [
                    -53.110836141999926, 
                    -32.7223943069999
                ], 
                [
                    -53.11404008, 
                    -32.74058441099994
                ], 
                [
                    -53.12685583499987, 
                    -32.75484710699992
                ], 
                [
                    -53.163081013999914, 
                    -32.77872161899991
                ], 
                [
                    -53.18283631199995, 
                    -32.79990410499991
                ], 
                [
                    -53.2038537199999, 
                    -32.82243987999989
                ], 
                [
                    -53.270826374999984, 
                    -32.863781026999916
                ], 
                [
                    -53.29883500199989, 
                    -32.8891024779999
                ], 
                [
                    -53.306999877999914, 
                    -32.907189229999915
                ], 
                [
                    -53.30958369999993, 
                    -32.9443962599999
                ], 
                [
                    -53.316301635999935, 
                    -32.96268971799989
                ], 
                [
                    -53.32730871699994, 
                    -32.973645121999965
                ], 
                [
                    -53.449110066999935, 
                    -33.042064716999874
                ], 
                [
                    -53.48331986499991, 
                    -33.06728281599992
                ], 
                [
                    -53.51153519699997, 
                    -33.09921885199989
                ], 
                [
                    -53.511586872999914, 
                    -33.09932220499992
                ], 
                [
                    -53.5116385499999, 
                    -33.09942555699986
                ], 
                [
                    -53.52066175999991, 
                    -33.12497899199994
                ], 
                [
                    -53.53685664899987, 
                    -33.17084238699995
                ], 
                [
                    -53.53613317899996, 
                    -33.2446363319999
                ], 
                [
                    -53.51401566599995, 
                    -33.39491139699993
                ], 
                [
                    -53.53680497199994, 
                    -33.55986256899986
                ], 
                [
                    -53.53964717599993, 
                    -33.649262796999935
                ], 
                [
                    -53.51153519699997, 
                    -33.6902938839999
                ], 
                [
                    -53.491071329999926, 
                    -33.6902938839999
                ], 
                [
                    -53.47319128399997, 
                    -33.68740000399991
                ], 
                [
                    -53.45670650299991, 
                    -33.687503356999926
                ], 
                [
                    -53.44042842699989, 
                    -33.69711517399995
                ], 
                [
                    -53.43081660999988, 
                    -33.71344492599988
                ], 
                [
                    -53.42363358599991, 
                    -33.73101491299987
                ], 
                [
                    -53.411282918999945, 
                    -33.74228037499992
                ], 
                [
                    -53.37909456936376, 
                    -33.74067597244537
                ], 
                [
                    -53.39635169199991, 
                    -33.75058359199993
                ], 
                [
                    -53.41478430899994, 
                    -33.76441822699992
                ], 
                [
                    -53.45091712099989, 
                    -33.801527601999936
                ], 
                [
                    -53.47305253799993, 
                    -33.834567966999984
                ], 
                [
                    -53.485585089999944, 
                    -33.869317315999936
                ], 
                [
                    -53.505523240999935, 
                    -33.95232512799993
                ], 
                [
                    -53.524647589999915, 
                    -34.00237395599994
                ], 
                [
                    -53.5299373039999, 
                    -34.04810963299987
                ], 
                [
                    -53.53945878799988, 
                    -34.062432549999954
                ], 
                [
                    -53.57445227799988, 
                    -34.08269622199995
                ], 
                [
                    -53.5912166009999, 
                    -34.0954729149999
                ], 
                [
                    -53.63996334499993, 
                    -34.14763762799993
                ], 
                [
                    -53.69359290299991, 
                    -34.181735934999935
                ], 
                [
                    -53.71100826699998, 
                    -34.198825778999975
                ], 
                [
                    -53.74665279899992, 
                    -34.25741952899993
                ], 
                [
                    -53.755970831999974, 
                    -34.26767343499995
                ], 
                [
                    -53.758290167999945, 
                    -34.27849700299994
                ], 
                [
                    -53.77989661399994, 
                    -34.336032809999935
                ], 
                [
                    -53.763661261999886, 
                    -34.372491143999895
                ], 
                [
                    -53.764881964999915, 
                    -34.39039478999986
                ], 
                [
                    -53.80577551999994, 
                    -34.40097421699991
                ], 
                [
                    -53.89830481699994, 
                    -34.443942966999956
                ], 
                [
                    -53.97223873599992, 
                    -34.487237237999935
                ], 
                [
                    -54.12462317599994, 
                    -34.61044687299993
                ], 
                [
                    -54.136789516999954, 
                    -34.623955987999906
                ], 
                [
                    -54.14093990799998, 
                    -34.64104583099994
                ], 
                [
                    -54.14049231699988, 
                    -34.65642669099989
                ], 
                [
                    -54.14590410099993, 
                    -34.667575778999904
                ], 
                [
                    -54.23680579299989, 
                    -34.68450286299989
                ], 
                [
                    -54.2596736319999, 
                    -34.68596770599994
                ], 
                [
                    -54.25560462099995, 
                    -34.67750416499992
                ], 
                [
                    -54.249501105999855, 
                    -34.670993747999916
                ], 
                [
                    -54.23232988199993, 
                    -34.6581356749999
                ], 
                [
                    -54.23932857999992, 
                    -34.653090101999865
                ], 
                [
                    -54.24567623599995, 
                    -34.6469052059999
                ], 
                [
                    -54.250477667999945, 
                    -34.63933684699994
                ], 
                [
                    -54.25283769399988, 
                    -34.630791924999926
                ], 
                [
                    -54.25121008999986, 
                    -34.6183407529999
                ], 
                [
                    -54.241078253999916, 
                    -34.594008070999934
                ], 
                [
                    -54.23859615799998, 
                    -34.58977629999991
                ], 
                [
                    -54.25328528599988, 
                    -34.57756926899994
                ], 
                [
                    -54.28034420499992, 
                    -34.56796640399996
                ], 
                [
                    -54.30894934799991, 
                    -34.5621884089999
                ], 
                [
                    -54.32860266799986, 
                    -34.561781507999896
                ], 
                [
                    -54.31737219999985, 
                    -34.568617445999905
                ], 
                [
                    -54.28014075399997, 
                    -34.58228932099995
                ], 
                [
                    -54.28815670499992, 
                    -34.594821872999944
                ], 
                [
                    -54.30443274599995, 
                    -34.608575127999956
                ], 
                [
                    -54.323109503999916, 
                    -34.61939869599986
                ], 
                [
                    -54.338490363999966, 
                    -34.623955987999906
                ], 
                [
                    -54.344634568999936, 
                    -34.63062916499986
                ], 
                [
                    -54.34479732999992, 
                    -34.644219658999916
                ], 
                [
                    -54.33739173099991, 
                    -34.654717705999886
                ], 
                [
                    -54.32115637899997, 
                    -34.65252044099989
                ], 
                [
                    -54.32258053299995, 
                    -34.64470794099991
                ], 
                [
                    -54.30768795499989, 
                    -34.64739348799988
                ], 
                [
                    -54.28921464799987, 
                    -34.66025155999991
                ], 
                [
                    -54.28014075399997, 
                    -34.682305596999896
                ], 
                [
                    -54.28807532499994, 
                    -34.69500090899996
                ], 
                [
                    -54.306467251999976, 
                    -34.707696221999925
                ], 
                [
                    -54.530791795999875, 
                    -34.80689869599988
                ], 
                [
                    -54.54206295499995, 
                    -34.81178150799994
                ], 
                [
                    -54.6041560539999, 
                    -34.82642994599995
                ], 
                [
                    -54.63646399599992, 
                    -34.848809502999956
                ], 
                [
                    -54.65689042899987, 
                    -34.856622002999956
                ], 
                [
                    -54.69945227799994, 
                    -34.86744557099986
                ], 
                [
                    -54.872710740999935, 
                    -34.93621184699994
                ], 
                [
                    -54.893706834999875, 
                    -34.939222914999945
                ], 
                [
                    -54.913726365999935, 
                    -34.9452450499999
                ], 
                [
                    -54.93932044199991, 
                    -34.96990325299994
                ], 
                [
                    -54.95860755099994, 
                    -34.973402601999936
                ], 
                [
                    -54.953968878999916, 
                    -34.96331145599996
                ], 
                [
                    -54.95181230399993, 
                    -34.9569638
                ], 
                [
                    -54.95177161399994, 
                    -34.95289478999989
                ], 
                [
                    -54.96222896999993, 
                    -34.93962981599995
                ], 
                [
                    -54.975738084999904, 
                    -34.92848072699992
                ], 
                [
                    -54.99356035099987, 
                    -34.92099374799996
                ], 
                [
                    -55.03307044199991, 
                    -34.916761976999936
                ], 
                [
                    -55.03547115799995, 
                    -34.912855726999936
                ], 
                [
                    -55.03453528599988, 
                    -34.90650807099992
                ], 
                [
                    -55.041127081999946, 
                    -34.897637627999956
                ], 
                [
                    -55.05125891799992, 
                    -34.89137135199992
                ], 
                [
                    -55.06037350199992, 
                    -34.887790622999944
                ], 
                [
                    -55.082142706999974, 
                    -34.88396575299993
                ], 
                [
                    -55.129790818999936, 
                    -34.885918877999885
                ], 
                [
                    -55.22175045499995, 
                    -34.90374114399995
                ], 
                [
                    -55.260243292999945, 
                    -34.897637627999956
                ], 
                [
                    -55.28648841099988, 
                    -34.876234632999925
                ], 
                [
                    -55.338286912999905, 
                    -34.818780205999914
                ], 
                [
                    -55.37694251199994, 
                    -34.801446221999925
                ], 
                [
                    -55.40192623599995, 
                    -34.799981377999956
                ], 
                [
                    -55.46820360799998, 
                    -34.79540215299997
                ], 
                [
                    -55.50963582199989, 
                    -34.799064531999946
                ], 
                [
                    -55.56117305499987, 
                    -34.787834173999954
                ], 
                [
                    -55.60179446399988, 
                    -34.77241464899993
                ], 
                [
                    -55.646730843999904, 
                    -34.78109997799993
                ], 
                [
                    -55.69344767599992, 
                    -34.76474114699997
                ], 
                [
                    -55.75650301499991, 
                    -34.78266635899995
                ], 
                [
                    -55.792050812999946, 
                    -34.774133854999974
                ], 
                [
                    -55.858786482999875, 
                    -34.793060669999946
                ], 
                [
                    -55.889101437999926, 
                    -34.80347481799991
                ], 
                [
                    -55.954431525999894, 
                    -34.83940229199992
                ], 
                [
                    -56.004051819999916, 
                    -34.86910175799994
                ], 
                [
                    -56.06963449299991, 
                    -34.90100253399993
                ], 
                [
                    -56.10519841799996, 
                    -34.8984161289999
                ], 
                [
                    -56.13563268999994, 
                    -34.91282873699993
                ], 
                [
                    -56.14989173099988, 
                    -34.920342705999914
                ], 
                [
                    -56.15608835099994, 
                    -34.94118826299993
                ], 
                [
                    -56.17728986599991, 
                    -34.916324502999984
                ], 
                [
                    -56.194509927999974, 
                    -34.91350868799988
                ], 
                [
                    -56.21300164399992, 
                    -34.907693230999925
                ], 
                [
                    -56.20466061099998, 
                    -34.89869557099992
                ], 
                [
                    -56.20345465699995, 
                    -34.887502625999915
                ], 
                [
                    -56.214589163999904, 
                    -34.8795878859999
                ], 
                [
                    -56.230550958999885, 
                    -34.877749998999974
                ], 
                [
                    -56.23650847099995, 
                    -34.89288421099995
                ], 
                [
                    -56.25633704299992, 
                    -34.9061825499999
                ], 
                [
                    -56.26582366799988, 
                    -34.90626615199997
                ], 
                [
                    -56.28797603899994, 
                    -34.90348919599998
                ], 
                [
                    -56.31126868399991, 
                    -34.9061825499999
                ], 
                [
                    -56.34276282499994, 
                    -34.88396575299993
                ], 
                [
                    -56.40294348899991, 
                    -34.854750257999896
                ], 
                [
                    -56.41844641799992, 
                    -34.84303150799991
                ], 
                [
                    -56.42076575399997, 
                    -34.828220309999935
                ], 
                [
                    -56.40375055599989, 
                    -34.81605142099991
                ], 
                [
                    -56.38684753399994, 
                    -34.801870234999924
                ], 
                [
                    -56.361281585999905, 
                    -34.79663604999992
                ], 
                [
                    -56.376119660999876, 
                    -34.7827292459999
                ], 
                [
                    -56.39573833799989, 
                    -34.77588006599994
                ], 
                [
                    -56.448432032999904, 
                    -34.75827246199988
                ], 
                [
                    -56.48508775499994, 
                    -34.75354986399992
                ], 
                [
                    -56.52044438899989, 
                    -34.75482088499993
                ], 
                [
                    -56.541900193999936, 
                    -34.767022393999895
                ], 
                [
                    -56.55801347599993, 
                    -34.76506926899994
                ], 
                [
                    -56.57359778599991, 
                    -34.758965752999956
                ], 
                [
                    -56.61095130099997, 
                    -34.739434502999885
                ], 
                [
                    -56.628529425999886, 
                    -34.73259856599995
                ], 
                [
                    -56.646362077999925, 
                    -34.72264151799989
                ], 
                [
                    -56.71354449299989, 
                    -34.70703725399993
                ], 
                [
                    -56.79528944499992, 
                    -34.69849235399991
                ], 
                [
                    -56.873890753999916, 
                    -34.670179945999905
                ], 
                [
                    -56.890695766999926, 
                    -34.6600888
                ], 
                [
                    -56.90416419199991, 
                    -34.63551197699992
                ], 
                [
                    -56.91974850199989, 
                    -34.62322356599988
                ], 
                [
                    -56.95287024599995, 
                    -34.60344817499994
                ], 
                [
                    -56.97657717699991, 
                    -34.58104557399989
                ], 
                [
                    -56.997417070999916, 
                    -34.56406881499997
                ], 
                [
                    -57.01578753199993, 
                    -34.55209148499999
                ], 
                [
                    -57.042717102999944, 
                    -34.5381248499999
                ], 
                [
                    -57.05742538599992, 
                    -34.527127071999885
                ], 
                [
                    -57.05589758999989, 
                    -34.51344166499989
                ], 
                [
                    -57.0624080069999, 
                    -34.50652434699988
                ], 
                [
                    -57.077015753999916, 
                    -34.49814218499992
                ], 
                [
                    -57.083159959999875, 
                    -34.49358489399988
                ], 
                [
                    -57.10195878799993, 
                    -34.47584400799988
                ], 
                [
                    -57.120025193999936, 
                    -34.46298593499995
                ], 
                [
                    -57.15196415799991, 
                    -34.45093220299995
                ], 
                [
                    -57.20319801399992, 
                    -34.44207349299991
                ], 
                [
                    -57.292158428999926, 
                    -34.44033264899993
                ], 
                [
                    -57.34694166199989, 
                    -34.443459326999914
                ], 
                [
                    -57.3651999219999, 
                    -34.43044041099991
                ], 
                [
                    -57.411428258999905, 
                    -34.431505619999925
                ], 
                [
                    -57.43697381399994, 
                    -34.4445755629999
                ], 
                [
                    -57.44913018299991, 
                    -34.43153807199987
                ], 
                [
                    -57.47466288499987, 
                    -34.42954124999993
                ], 
                [
                    -57.502635281999915, 
                    -34.440582482999915
                ], 
                [
                    -57.53791369999993, 
                    -34.45361368799986
                ], 
                [
                    -57.56947545399996, 
                    -34.42650397499999
                ], 
                [
                    -57.5949972249999, 
                    -34.425472969999944
                ], 
                [
                    -57.624177455999956, 
                    -34.430451961999964
                ], 
                [
                    -57.664323577999966, 
                    -34.445437727999916
                ], 
                [
                    -57.72030011399988, 
                    -34.46337320299993
                ], 
                [
                    -57.73853539199985, 
                    -34.46131766899994
                ], 
                [
                    -57.76411482299994, 
                    -34.47429458499994
                ], 
                [
                    -57.79330204399986, 
                    -34.47219671799991
                ], 
                [
                    -57.82250955599994, 
                    -34.47510857199997
                ], 
                [
                    -57.855354161999884, 
                    -34.470967084999955
                ], 
                [
                    -57.845584683999874, 
                    -34.46297908699992
                ], 
                [
                    -57.85404767099996, 
                    -34.447881645999885
                ], 
                [
                    -57.8820192039999, 
                    -34.4407241699999
                ], 
                [
                    -57.900189818999934, 
                    -34.41652468099994
                ], 
                [
                    -57.89759955999995, 
                    -34.37633881199993
                ], 
                [
                    -57.92275956899988, 
                    -34.35369231599995
                ], 
                [
                    -57.942738410999965, 
                    -34.32626718499999
                ], 
                [
                    -58.0169164699999, 
                    -34.25310637799993
                ], 
                [
                    -58.04979407499988, 
                    -34.24000416499986
                ], 
                [
                    -58.06139075399989, 
                    -34.22470468499991
                ], 
                [
                    -58.07697506399998, 
                    -34.19198984199997
                ], 
                [
                    -58.094593878999916, 
                    -34.17782968499995
                ], 
                [
                    -58.11937415299988, 
                    -34.16920338299994
                ], 
                [
                    -58.14590410099993, 
                    -34.16513437299997
                ], 
                [
                    -58.169097459999875, 
                    -34.1639950499999
                ], 
                [
                    -58.19619706899991, 
                    -34.15943775799991
                ], 
                [
                    -58.20872962099989, 
                    -34.14763762799993
                ], 
                [
                    -58.220326300999915, 
                    -34.11003997199994
                ], 
                [
                    -58.23184160099996, 
                    -34.08879973799995
                ], 
                [
                    -58.316517706999946, 
                    -33.98650481599992
                ], 
                [
                    -58.334828253999916, 
                    -33.97332122199988
                ], 
                [
                    -58.37242591099991, 
                    -33.95435963299987
                ], 
                [
                    -58.38882402299993, 
                    -33.94207122199991
                ], 
                [
                    -58.40269934799991, 
                    -33.92278411299988
                ], 
                [
                    -58.41002356699991, 
                    -33.90227629999991
                ], 
                [
                    -58.43464107999992, 
                    -33.784926039999874
                ], 
                [
                    -58.43936113199993, 
                    -33.69850025799988
                ], 
                [
                    -58.425770636999886, 
                    -33.612888278999975
                ], 
                [
                    -58.42902584499993, 
                    -33.592054945999905
                ], 
                [
                    -58.43504798099991, 
                    -33.57236093499996
                ], 
                [
                    -58.438343878999945, 
                    -33.55144622199991
                ], 
                [
                    -58.43321692599994, 
                    -33.527764580999886
                ], 
                [
                    -58.419585740999906, 
                    -33.508233330999914
                ], 
                [
                    -58.38536536399991, 
                    -33.470310153999975
                ], 
                [
                    -58.378570115999906, 
                    -33.448663018999895
                ], 
                [
                    -58.384877081999946, 
                    -33.42913176899991
                ], 
                [
                    -58.41258704299992, 
                    -33.40960051899994
                ], 
                [
                    -58.41893469999985, 
                    -33.389906507999896
                ], 
                [
                    -58.41258704299992, 
                    -33.37167734199991
                ], 
                [
                    -58.397206183999884, 
                    -33.35564544099992
                ], 
                [
                    -58.36119544199991, 
                    -33.32577890399993
                ], 
                [
                    -58.35073808499993, 
                    -33.30575937299996
                ], 
                [
                    -58.349232550999886, 
                    -33.282810153999975
                ], 
                [
                    -58.366037563999896, 
                    -33.196058851999865
                ], 
                [
                    -58.36693274599989, 
                    -33.15374114399994
                ], 
                [
                    -58.351389126999976, 
                    -33.121677341999956
                ], 
                [
                    -58.31029212099989, 
                    -33.10881926899994
                ], 
                [
                    -58.21735592399992, 
                    -33.11353932099986
                ], 
                [
                    -58.17442786399994, 
                    -33.11044687299996
                ], 
                [
                    -58.13776607999992, 
                    -33.09514739399991
                ], 
                [
                    -58.10016842399992, 
                    -33.06560637799994
                ], 
                [
                    -58.08372962099992, 
                    -33.047539971999925
                ], 
                [
                    -58.07697506399998, 
                    -33.03069426899992
                ], 
                [
                    -58.07530676999997, 
                    -33.00750090899989
                ], 
                [
                    -58.07066809799994, 
                    -32.98951588299995
                ], 
                [
                    -58.055816209999904, 
                    -32.95183684699988
                ], 
                [
                    -58.04849199099988, 
                    -32.91171640399995
                ], 
                [
                    -58.05711829299989, 
                    -32.88176848799989
                ], 
                [
                    -58.07721920499992, 
                    -32.85784270599993
                ], 
                [
                    -58.12047278599994, 
                    -32.81926848799995
                ], 
                [
                    -58.13076738199993, 
                    -32.8026669249999
                ], 
                [
                    -58.1361384759999, 
                    -32.78435637799993
                ], 
                [
                    -58.13776607999992, 
                    -32.763441664999874
                ], 
                [
                    -58.13585364499997, 
                    -32.718357028999904
                ], 
                [
                    -58.13768469999994, 
                    -32.69557057099988
                ], 
                [
                    -58.1451716789999, 
                    -32.678155205999914
                ], 
                [
                    -58.13776607999992, 
                    -32.670668226999936
                ], 
                [
                    -58.14622962099986, 
                    -32.6449520809999
                ], 
                [
                    -58.15721594999991, 
                    -32.57512786299995
                ], 
                [
                    -58.169097459999875, 
                    -32.56080494599988
                ], 
                [
                    -58.17711341099991, 
                    -32.54501718499992
                ], 
                [
                    -58.19741777299993, 
                    -32.469821872999916
                ], 
                [
                    -58.20010331899991, 
                    -32.447198174999954
                ], 
                [
                    -58.20011185209165, 
                    -32.4471299123439
                ], 
                [
                    -58.1997244879999, 
                    -32.44478851299988
                ], 
                [
                    -58.18995764199994, 
                    -32.433936461999934
                ], 
                [
                    -58.16494624899994, 
                    -32.38949472999987
                ], 
                [
                    -58.101590942999934, 
                    -32.31135996499992
                ], 
                [
                    -58.096526652999955, 
                    -32.28097422299987
                ], 
                [
                    -58.10691361499997, 
                    -32.251828714999945
                ], 
                [
                    -58.175229858999955, 
                    -32.174107360999926
                ], 
                [
                    -58.18654699699994, 
                    -32.15292002399988
                ], 
                [
                    -58.180862589999975, 
                    -32.13245615599992
                ], 
                [
                    -58.15879675299999, 
                    -32.101553648999925
                ], 
                [
                    -58.148306437999935, 
                    -32.06289967799992
                ], 
                [
                    -58.145309203999915, 
                    -32.01788950599989
                ], 
                [
                    -58.14902990699994, 
                    -31.975204772999888
                ], 
                [
                    -58.15879675299999, 
                    -31.94388885499997
                ], 
                [
                    -58.19031937699995, 
                    -31.913296406999876
                ], 
                [
                    -58.202618367999975, 
                    -31.893142597999898
                ], 
                [
                    -58.1960037849999, 
                    -31.872575377999908
                ], 
                [
                    -58.16861527499995, 
                    -31.846013691999886
                ], 
                [
                    -58.15285396399989, 
                    -31.835988464999957
                ], 
                [
                    -58.1308398029999, 
                    -31.827823587999944
                ], 
                [
                    -58.08345251499992, 
                    -31.81976206399986
                ], 
                [
                    -58.05926794399994, 
                    -31.811493834999908
                ], 
                [
                    -58.04888098199993, 
                    -31.79712778699991
                ], 
                [
                    -57.98862626099995, 
                    -31.642821960999882
                ], 
                [
                    -57.979582885999974, 
                    -31.59879363999991
                ], 
                [
                    -57.986817585999944, 
                    -31.55414520299989
                ], 
                [
                    -58.01332759699994, 
                    -31.52561981199993
                ], 
                [
                    -58.0389780109999, 
                    -31.508637468999908
                ], 
                [
                    -58.05079300899993, 
                    -31.500815124999903
                ], 
                [
                    -58.07523596199988, 
                    -31.47518361399993
                ], 
                [
                    -58.06257523599993, 
                    -31.444281107999927
                ], 
                [
                    -58.04355830899996, 
                    -31.430638529999925
                ], 
                [
                    -58.005937865999954, 
                    -31.4110014849999
                ], 
                [
                    -57.990228230999975, 
                    -31.39932261199992
                ], 
                [
                    -57.98051306199994, 
                    -31.380512389999907
                ], 
                [
                    -57.975552123999904, 
                    -31.335140481999886
                ], 
                [
                    -57.9663537189999, 
                    -31.314573261999982
                ], 
                [
                    -57.95948075399994, 
                    -31.307958678999896
                ], 
                [
                    -57.94299597199995, 
                    -31.29679656999987
                ], 
                [
                    -57.93560624199995, 
                    -31.290285338999894
                ], 
                [
                    -57.914832316, 
                    -31.252458190999917
                ], 
                [
                    -57.90511714699994, 
                    -31.240986022999905
                ], 
                [
                    -57.90501379399993, 
                    -31.21504445399995
                ], 
                [
                    -57.911731730999946, 
                    -31.17060272199997
                ], 
                [
                    -57.89901932799998, 
                    -31.12647104899989
                ], 
                [
                    -57.873749552999925, 
                    -31.09308807399991
                ], 
                [
                    -57.8552493899999, 
                    -31.05898162799994
                ], 
                [
                    -57.86331091399998, 
                    -31.012266133999944
                ], 
                [
                    -57.905478881999954, 
                    -30.95883270199994
                ], 
                [
                    -57.911731730999946, 
                    -30.947360534999916
                ], 
                [
                    -57.903980265999934, 
                    -30.929687194999914
                ], 
                [
                    -57.88532507299996, 
                    -30.918835143999956
                ], 
                [
                    -57.84279536999992, 
                    -30.90922332699995
                ], 
                [
                    -57.819644327999924, 
                    -30.911600442999898
                ], 
                [
                    -57.80724198499988, 
                    -30.907569681999902
                ], 
                [
                    -57.801867635, 
                    -30.892480162999902
                ], 
                [
                    -57.796131550999945, 
                    -30.868398945999957
                ], 
                [
                    -57.79499466999994, 
                    -30.857960306999928
                ], 
                [
                    -57.79602819899992, 
                    -30.816205748999977
                ], 
                [
                    -57.79939710199994, 
                    -30.7914607069999
                ], 
                [
                    -57.801867635, 
                    -30.773314309999932
                ], 
                [
                    -57.80865916899998, 
                    -30.74733121699991
                ], 
                [
                    -57.81788732999988, 
                    -30.712026061999964
                ], 
                [
                    -57.82620723499991, 
                    -30.68970184299991
                ], 
                [
                    -57.84853145399998, 
                    -30.647947285999876
                ], 
                [
                    -57.86331091399998, 
                    -30.62862029999991
                ], 
                [
                    -57.8857901609999, 
                    -30.589862975999978
                ], 
                [
                    -57.889769246999975, 
                    -30.550795592999876
                ], 
                [
                    -57.87710852099994, 
                    -30.514828795999904
                ], 
                [
                    -57.84961665899996, 
                    -30.485269877999954
                ], 
                [
                    -57.652729451999875, 
                    -30.32910369899993
                ], 
                [
                    -57.6310770259999, 
                    -30.297064309999925
                ], 
                [
                    -57.62373897299992, 
                    -30.25810028099994
                ], 
                [
                    -57.637949991999875, 
                    -30.215105488999953
                ], 
                [
                    -57.64244584199989, 
                    -30.193091328999884
                ], 
                [
                    -57.63397090699999, 
                    -30.18358286499989
                ], 
                [
                    -57.61169836499994, 
                    -30.182962747999923
                ], 
                [
                    -57.586842000999894, 
                    -30.204046731999952
                ], 
                [
                    -57.567463338999914, 
                    -30.25634328199996
                ], 
                [
                    -57.53599239099995, 
                    -30.274430033999877
                ], 
                [
                    -57.51098099799995, 
                    -30.276703796999897
                ], 
                [
                    -57.46721105999998, 
                    -30.269882506999934
                ], 
                [
                    -57.44312984299992, 
                    -30.269469095999924
                ], 
                [
                    -57.42979732299992, 
                    -30.27546356199987
                ], 
                [
                    -57.414811156999946, 
                    -30.29572072299996
                ], 
                [
                    -57.39925655099992, 
                    -30.29913136799989
                ], 
                [
                    -57.389386352999935, 
                    -30.294893900999938
                ], 
                [
                    -57.366597045999924, 
                    -30.277220560999936
                ], 
                [
                    -57.35383296799998, 
                    -30.2719495649999
                ], 
                [
                    -57.33429927599988, 
                    -30.272673033999908
                ], 
                [
                    -57.321741902999946, 
                    -30.279804381999938
                ], 
                [
                    -57.31099320499993, 
                    -30.288279316999933
                ], 
                [
                    -57.2964721269999, 
                    -30.293343606999912
                ], 
                [
                    -57.28861731, 
                    -30.29075978599991
                ], 
                [
                    -57.27621496599997, 
                    -30.277737324999876
                ], 
                [
                    -57.27037552899989, 
                    -30.27515350299997
                ], 
                [
                    -57.26246903499995, 
                    -30.27866750099993
                ], 
                [
                    -57.250066691999876, 
                    -30.290449726999924
                ], 
                [
                    -57.24505407699991, 
                    -30.293343606999912
                ], 
                [
                    -57.21260127799991, 
                    -30.287349140999893
                ], 
                [
                    -57.183714152999954, 
                    -30.2675053909999
                ], 
                [
                    -57.16381872599993, 
                    -30.23929005999993
                ], 
                [
                    -57.15834102399995, 
                    -30.207870787999894
                ], 
                [
                    -57.15084794199993, 
                    -30.182342630999955
                ], 
                [
                    -57.12955725099994, 
                    -30.149993183999868
                ], 
                [
                    -57.10227209499993, 
                    -30.12115773599993
                ], 
                [
                    -57.07710567299998, 
                    -30.10606821699993
                ], 
                [
                    -57.067235473999915, 
                    -30.106791686999927
                ], 
                [
                    -57.048528605999905, 
                    -30.11454315199994
                ], 
                [
                    -57.037883260999934, 
                    -30.114646504999953
                ], 
                [
                    -57.01829789299998, 
                    -30.105758158999947
                ], 
                [
                    -57.01126989799991, 
                    -30.103484394999924
                ], 
                [
                    -56.974579630999926, 
                    -30.097489928999906
                ], 
                [
                    -56.954529174999976, 
                    -30.096869811999937
                ], 
                [
                    -56.90636673999998, 
                    -30.108548685999907
                ]
            ]
        ]
    }, 
    "type": "Feature", 
    "properties": {
        "ADMIN": "Uruguay", 
        "ISO_A3": "URY"
    }
}